<svg width="24" height="24" viewBox="0 0 24 24" fill="none" xmlns="http://www.w3.org/2000/svg">
<path fill-rule="evenodd" clip-rule="evenodd" d="M3.82599 5.75157L2.53966 4.49803L1.56628 5.6458L4.33671 8.3456L4.82339 8.81989L5.31008 8.3456L8.08051 5.64579L7.10713 4.49802L5.79607 5.77567V1.29747H3.82599L3.82599 5.75157Z"class="svg-neutrals"/>
<path fill-rule="evenodd" clip-rule="evenodd" d="M15.351 14.0359H13.1346V17.3975H9.81012V19.6385H13.1346V23H15.351V19.6385H18.6755V17.3975H15.351V14.0359Z" class="svg-green"/>
<path fill-rule="evenodd" clip-rule="evenodd" d="M22 2.83087H16.4592V7.01139L12.044 11.4757H7.59382V9.55391H2.05298V15.1564H7.59382V13.4757H11.8247C12.5554 13.1168 13.3759 12.9154 14.2428 12.9154C15.4902 12.9154 16.6413 13.3322 17.5673 14.0355V10.6744H20.8919V14.0359H17.5679C17.9874 14.3547 18.3608 14.7322 18.6759 15.1564H22V9.55391H16.7574L17.8655 8.43341H22V2.83087ZM16.4592 9.85543V11.4757H14.8568L16.4592 9.85543ZM3.16115 10.6744H6.48565V14.0359H3.16115V10.6744ZM17.5673 3.95138H20.8919V7.3129H17.5673V3.95138Z"class="svg-neutrals"/>
</svg>
