<svg width="24" height="24" viewBox="0 0 24 24" xmlns="http://www.w3.org/2000/svg">
<!-- <rect width="24" height="24" fill="white"/> -->
<path fill-rule="evenodd" clip-rule="evenodd" d="M18 6H2V22H18V6ZM16.9333 7.06667H3.06667V20.9333H16.9333V7.06667Z" class="svg-neutrals"/>
<path fill-rule="evenodd" clip-rule="evenodd" d="M4 4H20V20H17V19H19V5H5V7H4V4Z" class="svg-neutrals"/>
<path fill-rule="evenodd" clip-rule="evenodd" d="M6 2H22V18H19V17H21V3H7V5H6V2ZM18 17H17V18H18V17ZM6 6H7V7H6V6Z" class="svg-neutrals"/>
<path fill-rule="evenodd" clip-rule="evenodd" d="M11.5 19.6292L16 14L11.5 8.37083V11.5H4.5V16.5H11.5V19.6292Z" class="svg-blue"/>
</svg>
