<svg width="24" height="24" viewBox="0 0 24 24" fill="none" xmlns="http://www.w3.org/2000/svg">
<!-- <rect width="24" height="24" fill="white"/> -->
<path fill-rule="evenodd" clip-rule="evenodd" d="M7.5 4H19.5V17.75H7.5V4ZM9.10001 5.61764H17.9V16.1323H9.10001V5.61764ZM4.5 5.83333H6.125V18.7745H6.35715V18.7745H16.5714V18.7745H17.5V20.5H4.5V5.83333Z" class="svg-neutrals"/>
<path fill-rule="evenodd" clip-rule="evenodd" d="M11.5201 7.78015L10.5301 8.7701L12.51 10.75L10.5301 12.7299L11.5201 13.7198L13.5 11.7399L15.4799 13.7198L16.4698 12.7299L14.4899 10.75L16.4698 8.7701L15.4799 7.78015L13.5 9.76005L11.5201 7.78015Z" class="svg-neutrals"/>
</svg>
