<svg width="24" height="24" viewBox="0 0 24 24" fill="none" xmlns="http://www.w3.org/2000/svg">
<!-- <rect width="24" height="24" fill="white"/> -->
<circle cx="7.5" cy="5.5" r="3.5" class="svg-neutrals"/>
<!-- <circle cx="5.5" cy="18.5" r="3.5" class="svg-neutrals"/> -->
<circle cx="17.5" cy="13.5" r="3.5" class="svg-light-grey"/>
</svg>
