<svg width="24" height="24" viewBox="0 0 24 24" fill="none" xmlns="http://www.w3.org/2000/svg">
<!-- <rect width="24" height="24" fill="white"/> -->
<path fill-rule="evenodd" clip-rule="evenodd" d="M14.4872 12.9529C15.1767 12.0287 15.5815 10.9026 15.5815 9.68743C15.5815 6.54635 12.8769 4 9.54074 4C6.20453 4 3.5 6.54635 3.5 9.68743C3.5 12.8285 6.20453 15.3749 9.54074 15.3749C10.6505 15.3749 11.6903 15.0931 12.5839 14.6015L18.9068 20.1623L20.6745 18.3945L14.4872 12.9529ZM9.54079 13.4791C11.7649 13.4791 13.5679 11.7815 13.5679 9.68743C13.5679 7.59338 11.7649 5.89581 9.54079 5.89581C7.31665 5.89581 5.51363 7.59338 5.51363 9.68743C5.51363 11.7815 7.31665 13.4791 9.54079 13.4791Z" class="svg-neutrals"/>
</svg>
