<?xml version="1.0" encoding="UTF-8" standalone="no"?>
<svg xmlns:dc="http://purl.org/dc/elements/1.1/" xmlns:cc="http://creativecommons.org/ns#"
   xmlns:rdf="http://www.w3.org/1999/02/22-rdf-syntax-ns#" xmlns:svg="http://www.w3.org/2000/svg"
   xmlns="http://www.w3.org/2000/svg" xmlns:sodipodi="http://sodipodi.sourceforge.net/DTD/sodipodi-0.dtd"
   xmlns:inkscape="http://www.inkscape.org/namespaces/inkscape" width="250mm" height="250mm" viewBox="0 0 250 250"
   version="1.1" id="svg8" inkscape:version="0.92.2 (5c3e80d, 2017-08-06)" sodipodi:docname="resume1.svg">
   <defs id="defs2">
      <filter inkscape:collect="always" style="color-interpolation-filters:sRGB" id="filter826" x="-0.024" width="1.048"
         y="-0.024" height="1.048">
         <feGaussianBlur inkscape:collect="always" stdDeviation="0.2" id="feGaussianBlur828" />
      </filter>
   </defs>
   <sodipodi:namedview id="base" pagecolor="#ffffff" bordercolor="#666666" borderopacity="1.0"
      inkscape:pageopacity="0.0" inkscape:pageshadow="2" inkscape:zoom="0.9899495" inkscape:cx="412.51055"
      inkscape:cy="437.47262" inkscape:document-units="mm" inkscape:current-layer="layer1" showgrid="true"
      inkscape:window-width="1920" inkscape:window-height="977" inkscape:window-x="0" inkscape:window-y="28"
      inkscape:window-maximized="1" inkscape:document-rotation="0">
      <inkscape:grid type="xygrid" id="grid815" units="mm" spacingx="5" spacingy="5" />
   </sodipodi:namedview>
   <metadata id="metadata5">
      <rdf:RDF>
         <cc:Work rdf:about="">
            <dc:format>image/svg+xml</dc:format>
            <dc:type rdf:resource="http://purl.org/dc/dcmitype/StillImage" />
            <dc:title />
         </cc:Work>
      </rdf:RDF>
   </metadata>
   <g inkscape:label="Ebene 1" inkscape:groupmode="layer" id="layer1" transform="translate(0,-47)">
      <path class="svg-neutral"
         style="opacity:1;fill-opacity:1;stroke:#008000;stroke-width:0.38929135;stroke-linejoin:miter;stroke-miterlimit:4;stroke-dasharray:none;stroke-dashoffset:0;stroke-opacity:1"
         d="M 94.488281 94.488281 L 94.488281 113.38672 L 94.488281 850.39453 L 113.38672 850.39453 L 831.49609 850.39453 L 850.39453 850.39453 L 850.39453 113.38672 L 850.39453 94.488281 L 94.488281 94.488281 z M 113.38672 113.38672 L 831.49609 113.38672 L 831.49609 831.49609 L 113.38672 831.49609 L 113.38672 113.38672 z "
         transform="matrix(0.26458333,0,0,0.26458333,0,47)" id="rect2379" />
          <text class="svg-neutrals"
       xml:space="preserve"
       style="font-style:normal;font-weight:normal;font-size:70.55555725px;line-height:1.25;font-family:sans-serif;letter-spacing:0px;word-spacing:0px;fill-opacity:1;stroke:none;stroke-width:0.26458332"
       x="38.307644"
       y="206.45224"
       id="text1902"><tspan
         sodipodi:role="line"
         id="tspan1900"
         x="52.307644"
         y="242.45224"
         style="font-style:normal;font-variant:normal;font-weight:bold;font-stretch:normal;font-size:70.55555725px;font-family:sans-serif;-inkscape-font-specification:'sans-serif Bold';stroke-width:0.26458332">RES</tspan></text>
           <path class="svg-neutrals"
         style="opacity:1;fill-opacity:1;stroke:#008000;stroke-width:0.38929135;stroke-linejoin:miter;stroke-miterlimit:4;stroke-dasharray:none;stroke-dashoffset:0;stroke-opacity:1"
         d="M 94.488281 94.488281 L 94.488281 113.38672 L 94.488281 850.39453 L 113.38672 850.39453 L 831.49609 850.39453 L 850.39453 850.39453 L 850.39453 113.38672 L 850.39453 94.488281 L 94.488281 94.488281 z M 113.38672 113.38672 L 831.49609 113.38672 L 831.49609 831.49609 L 113.38672 831.49609 L 113.38672 113.38672 z "
         transform="matrix(0.26458333,0,0,0.26458333,0,47)" id="rect2379" />
          <text class="svg-red"
       xml:space="preserve"
       style="font-style:normal;font-weight:normal;font-size:75.55555725px;line-height:1.25;font-family:sans-serif;letter-spacing:0px;word-spacing:0px;fill-opacity:1;stroke:none;stroke-width:0.26458332"
       x="238.307644"
       y="206.45224"
       id="text1902"><tspan
         sodipodi:role="line"
         id="tspan1900"
         x="52.307644"
         y="152.45224"
         style="font-style:normal;font-variant:normal;font-weight:bold;font-stretch:normal;font-size:70.55555725px;font-family:sans-serif;-inkscape-font-specification:'sans-serif Bold';stroke-width:0.26458332">IGN</tspan></text>
  </g>
</svg>