<svg width="24" height="24" viewBox="0 0 24 24" fill="none" xmlns="http://www.w3.org/2000/svg">
<!-- <rect width="24" height="24" fill="white"/> -->
<path fill-rule="evenodd" clip-rule="evenodd" d="M3 2H2V3V22H3H12.101C11.7889 21.6942 11.5054 21.3594 11.2547 21H3V3H21V11.2547C21.3594 11.5054 21.6942 11.7889 22 12.101V3V2H21H3ZM22 21.899C21.9667 21.933 21.933 21.9667 21.899 22H22V21.899ZM16.6019 10.0111V9.45455H15.5962V10.1408C15.9237 10.0741 16.2595 10.0303 16.6019 10.0111ZM13.6136 10.8721V7.27273H12.3523L9.38636 14.517H9.28409L6.31818 7.27273H5.05682V16H6.04545V9.36932H6.13068L8.85795 16H9.8125L12.5398 9.36932H12.625V11.5353C12.9341 11.2875 13.2648 11.0654 13.6136 10.8721ZM16.1076 8.36364C15.9116 8.36364 15.7425 8.29688 15.6005 8.16335C15.4613 8.02983 15.3917 7.86932 15.3917 7.68182C15.3917 7.49432 15.4613 7.33381 15.6005 7.20028C15.7425 7.06676 15.9116 7 16.1076 7C16.3036 7 16.4712 7.06676 16.6104 7.20028C16.7525 7.33381 16.8235 7.49432 16.8235 7.68182C16.8235 7.86932 16.7525 8.02983 16.6104 8.16335C16.4712 8.29688 16.3036 8.36364 16.1076 8.36364Z" fill="black"/>
<path fill-rule="evenodd" clip-rule="evenodd" d="M17 22C19.7614 22 22 19.7614 22 17C22 14.2386 19.7614 12 17 12C14.2386 12 12 14.2386 12 17C12 19.7614 14.2386 22 17 22ZM16.5682 19L18.1818 14.6364H17.4545L16.25 18.1136H16.2045L15 14.6364H14.2727L15.8864 19H16.5682ZM18.9212 18.8949C19.0215 18.9953 19.1418 19.0455 19.282 19.0455C19.3767 19.0455 19.4619 19.0227 19.5376 18.9773C19.6153 18.9299 19.6768 18.8674 19.7223 18.7898C19.7696 18.7121 19.7933 18.6269 19.7933 18.5341C19.7933 18.3939 19.7431 18.2737 19.6428 18.1733C19.5424 18.0729 19.4221 18.0227 19.282 18.0227C19.1418 18.0227 19.0215 18.0729 18.9212 18.1733C18.8208 18.2737 18.7706 18.3939 18.7706 18.5341C18.7706 18.6742 18.8208 18.7945 18.9212 18.8949Z" class="svg-neutrals"/>
</svg>
