<?xml version="1.0" encoding="UTF-8" standalone="no"?>
<svg xmlns:dc="http://purl.org/dc/elements/1.1/" xmlns:cc="http://creativecommons.org/ns#"
   xmlns:rdf="http://www.w3.org/1999/02/22-rdf-syntax-ns#" xmlns:svg="http://www.w3.org/2000/svg"
   xmlns="http://www.w3.org/2000/svg" xmlns:sodipodi="http://sodipodi.sourceforge.net/DTD/sodipodi-0.dtd"
   xmlns:inkscape="http://www.inkscape.org/namespaces/inkscape" width="250mm" height="250mm" viewBox="0 0 250 250"
   version="1.1" id="svg8" inkscape:version="0.92.2 (5c3e80d, 2017-08-06)" sodipodi:docname="rerun_children_small.svg">
   <defs id="defs2" />
   <sodipodi:namedview id="base" pagecolor="#ffffff" bordercolor="#666666" borderopacity="1.0"
      inkscape:pageopacity="0.0" inkscape:pageshadow="2" inkscape:zoom="0.49497475" inkscape:cx="170.60218"
      inkscape:cy="552.74612" inkscape:document-units="mm" inkscape:current-layer="layer1" showgrid="true"
      inkscape:window-width="1920" inkscape:window-height="977" inkscape:window-x="0" inkscape:window-y="28"
      inkscape:window-maximized="1" inkscape:document-rotation="0">
      <inkscape:grid type="xygrid" id="grid815" units="mm" spacingx="5" spacingy="5" />
   </sodipodi:namedview>
   <metadata id="metadata5">
      <rdf:RDF>
         <cc:Work rdf:about="">
            <dc:format>image/svg+xml</dc:format>
            <dc:type rdf:resource="http://purl.org/dc/dcmitype/StillImage" />
            <dc:title />
         </cc:Work>
      </rdf:RDF>
   </metadata>
   <g inkscape:label="Ebene 1" inkscape:groupmode="layer" id="layer1" transform="translate(0,-47)">
      <rect class="svg-green"
         style="opacity:1;fill-opacity:1;stroke:#008000;stroke-width:0.103;stroke-linejoin:miter;stroke-miterlimit:4;stroke-dasharray:none;stroke-dashoffset:0;stroke-opacity:1"
         id="rect2379" width="200" height="5" x="25" y="72" />
      <rect class="svg-green"
         style="opacity:1;fill-opacity:1;stroke:#008000;stroke-width:0.103;stroke-linejoin:miter;stroke-miterlimit:4;stroke-dasharray:none;stroke-dashoffset:0;stroke-opacity:1"
         id="rect2381" width="5" height="195" x="25" y="77" />
      <rect class="svg-green"
         style="opacity:1;fill-opacity:1;stroke:#008000;stroke-width:0.103;stroke-linejoin:miter;stroke-miterlimit:4;stroke-dasharray:none;stroke-dashoffset:0;stroke-opacity:1"
         id="rect2383" width="5" height="195" x="219.99998" y="77" />
      <rect class="svg-green"
         style="opacity:1;fill-opacity:1;stroke:#008000;stroke-width:0.103;stroke-linejoin:miter;stroke-miterlimit:4;stroke-dasharray:none;stroke-dashoffset:0;stroke-opacity:1"
         id="rect2385" width="190" height="5" x="30.000002" y="267" />
      <g transform="matrix(0.53372425,0,0,0.53372425,17.832262,57.107673)" id="g1224">
         <circle class="svg-red" r="7.5" cy="175.8596" cx="85.663689" id="path1123"
            style="stroke:none;stroke-width:0.26458299" />
         <g id="g1213">
            <circle class="svg-red" r="10.421131" cy="252.10915" cx="81.525604" id="path1101"
               style="stroke:none;stroke-width:0.22058" />
            <path class="svg-green"
               d="m -259.94972,-121.1277 a 10.281177,10.421053 0 0 1 -8.87856,10.32362 10.281177,10.421053 0 0 1 -11.30109,-7.50682 10.281177,10.421053 0 0 1 5.79506,-12.37185 10.281177,10.421053 0 0 1 12.88227,4.13114"
               transform="rotate(-145.93614)" sodipodi:arc-type="arc" sodipodi:open="true" sodipodi:end="5.7357772"
               sodipodi:start="0" sodipodi:ry="10.421053" sodipodi:rx="10.281177" sodipodi:cy="-121.1277"
               sodipodi:cx="-270.2309" sodipodi:type="arc" id="path1101-2"
               style="stroke:none;stroke-width:0.220578" />
            <circle class="svg-green" r="7.5" cy="171.58282" cx="171.79315" id="path1123-5"
               style="stroke:none;stroke-width:0.26458299" />
            <circle class="svg-green" r="15" cy="99.49353" cx="141.1012" id="path1145"
               style="stroke:none;stroke-width:0.26458299" />
            <path class="svg-red" inkscape:connector-curvature="0" sodipodi:nodetypes="csscccccccscc" id="path1149"
               d="m 80.706848,171.28073 c -6.692283,16.88021 0,-25 3.582588,-32.07887 5.87799,-11.61437 26.417414,-22.92113 31.417414,-22.92113 h 10 l -5,75 c 0,0 -7.86184,26.79277 -10,30 -1.33635,2.80633 -20.000003,35 -20.000003,35 l -19.999999,-5 19.999999,-35 20.000003,-75 c 0,0 -13.138432,4.28636 -15.000002,10 -1.81934,5.58403 -1.391862,25.05551 -5.000001,30 0,0 -16.78203,-3.97955 -9.999999,-10 z"
               style="stroke:none;stroke-width:0.26458299px;stroke-linecap:butt;stroke-linejoin:miter;stroke-opacity:1" />
            <path class="svg-green" inkscape:connector-curvature="0" sodipodi:nodetypes="cscscccccccccccc" id="path1151"
               d="m 125.70685,116.28073 c 0,0 10,0 15,10 l 5,10 10,15 c 1.52006,2.28009 20,15 20,15 -6.89807,-6.23661 -3.29092,17.37054 -10,10 0,0 -20.28348,-13.67708 -20,-15 -2.55134,-1.6064 -10,-15 -10,-15 l -5,35 25,25 c 4.14268,7.48355 10,45 10,45 h -20 l -5,-35 -20,-25 v -5 z"
               style="stroke:none;stroke-width:0.26458299px;stroke-linecap:butt;stroke-linejoin:miter;stroke-opacity:1" />
            <path class="svg-green" inkscape:connector-curvature="0" id="path1153"
               d="m 155.70685,206.28073 -20,-25 c 0,0 0,-35 5,-40 5,-5 5,-5 5,-5 l -15,10 -5,45 30,15"
               style="stroke:none;stroke-width:0.26458299px;stroke-linecap:butt;stroke-linejoin:miter;stroke-opacity:1" />
         </g>
      </g>
      <g transform="matrix(0.53372425,0,0,0.53372425,98.736649,101.14805)" id="g1224-2">
         <circle class="svg-red" r="7.5" cy="175.8596" cx="85.663689" id="path1123-6"
            style="stroke:none;stroke-width:0.26458299" />
         <g id="g1213-9">
            <circle class="svg-red" r="10.421131" cy="252.10915" cx="81.525604" id="path1101-8"
               style="stroke:none;stroke-width:0.22058" />
            <path class="svg-green"
               d="m -259.94972,-121.1277 a 10.281177,10.421053 0 0 1 -8.87856,10.32362 10.281177,10.421053 0 0 1 -11.30109,-7.50682 10.281177,10.421053 0 0 1 5.79506,-12.37185 10.281177,10.421053 0 0 1 12.88227,4.13114"
               transform="rotate(-145.93614)" sodipodi:arc-type="arc" sodipodi:open="true" sodipodi:end="5.7357772"
               sodipodi:start="0" sodipodi:ry="10.421053" sodipodi:rx="10.281177" sodipodi:cy="-121.1277"
               sodipodi:cx="-270.2309" sodipodi:type="arc" id="path1101-2-2"
               style="stroke:none;stroke-width:0.220578" />
            <circle class="svg-green" r="7.5" cy="171.58282" cx="171.79315" id="path1123-5-0"
               style="stroke:none;stroke-width:0.26458299" />
            <circle class="svg-green" r="15" cy="99.49353" cx="141.1012" id="path1145-2"
               style="stroke:none;stroke-width:0.26458299" />
            <path class="svg-red" inkscape:connector-curvature="0" sodipodi:nodetypes="csscccccccscc" id="path1149-2"
               d="m 80.706848,171.28073 c -6.692283,16.88021 0,-25 3.582588,-32.07887 5.87799,-11.61437 26.417414,-22.92113 31.417414,-22.92113 h 10 l -5,75 c 0,0 -7.86184,26.79277 -10,30 -1.33635,2.80633 -20.000003,35 -20.000003,35 l -19.999999,-5 19.999999,-35 20.000003,-75 c 0,0 -13.138432,4.28636 -15.000002,10 -1.81934,5.58403 -1.391862,25.05551 -5.000001,30 0,0 -16.78203,-3.97955 -9.999999,-10 z"
               style="stroke:none;stroke-width:0.26458299px;stroke-linecap:butt;stroke-linejoin:miter;stroke-opacity:1" />
            <path class="svg-green" inkscape:connector-curvature="0" sodipodi:nodetypes="cscscccccccccccc" id="path1151-1"
               d="m 125.70685,116.28073 c 0,0 10,0 15,10 l 5,10 10,15 c 1.52006,2.28009 20,15 20,15 -6.89807,-6.23661 -3.29092,17.37054 -10,10 0,0 -20.28348,-13.67708 -20,-15 -2.55134,-1.6064 -10,-15 -10,-15 l -5,35 25,25 c 4.14268,7.48355 10,45 10,45 h -20 l -5,-35 -20,-25 v -5 z"
               style="stroke:none;stroke-width:0.26458299px;stroke-linecap:butt;stroke-linejoin:miter;stroke-opacity:1" />
            <path class="svg-green" inkscape:connector-curvature="0" id="path1153-2"
               d="m 155.70685,206.28073 -20,-25 c 0,0 0,-35 5,-40 5,-5 5,-5 5,-5 l -15,10 -5,45 30,15"
               style="stroke:none;stroke-width:0.26458299px;stroke-linecap:butt;stroke-linejoin:miter;stroke-opacity:1" />
         </g>
      </g>
   </g>
</svg>