<?xml version="1.0" encoding="UTF-8" standalone="no"?>
<svg xmlns:dc="http://purl.org/dc/elements/1.1/" xmlns:cc="http://creativecommons.org/ns#"
   xmlns:rdf="http://www.w3.org/1999/02/22-rdf-syntax-ns#" xmlns:svg="http://www.w3.org/2000/svg"
   xmlns="http://www.w3.org/2000/svg" xmlns:sodipodi="http://sodipodi.sourceforge.net/DTD/sodipodi-0.dtd"
   xmlns:inkscape="http://www.inkscape.org/namespaces/inkscape" width="250mm" height="250mm" viewBox="0 0 250 250"
   version="1.1" id="svg8" inkscape:version="1.0.2-2 (e86c870879, 2021-01-15)" sodipodi:docname="resume.svg">
   <defs id="defs2" />
   <sodipodi:namedview id="base" pagecolor="#ffffff" bordercolor="#666666" borderopacity="1.0"
      inkscape:pageopacity="0.0" inkscape:pageshadow="2" inkscape:zoom="0.98994949" inkscape:cx="566.93642"
      inkscape:cy="451.59338" inkscape:document-units="mm" inkscape:current-layer="layer1" showgrid="true"
      inkscape:window-width="1920" inkscape:window-height="1001" inkscape:window-x="-9" inkscape:window-y="-9"
      inkscape:window-maximized="1" inkscape:document-rotation="0">
      <inkscape:grid type="xygrid" id="grid815" units="mm" spacingx="5" spacingy="5" />
   </sodipodi:namedview>
   <metadata id="metadata5">
      <rdf:RDF>
         <cc:Work rdf:about="">
            <dc:format>image/svg+xml</dc:format>
            <dc:type rdf:resource="http://purl.org/dc/dcmitype/StillImage" />
            <dc:title></dc:title>
         </cc:Work>
      </rdf:RDF>
   </metadata>
   <g inkscape:label="Ebene 1" inkscape:groupmode="layer" id="layer1" transform="translate(0,-47)">
      <rect
         style="opacity:1;fill:#008000;fill-opacity:1;stroke:#008000;stroke-width:0.103;stroke-linejoin:miter;stroke-miterlimit:4;stroke-dasharray:none;stroke-dashoffset:0;stroke-opacity:1"
         id="rect2379" width="200" height="5" x="25" y="72" />
      <rect
         style="opacity:1;fill:#008000;fill-opacity:1;stroke:#008000;stroke-width:0.103;stroke-linejoin:miter;stroke-miterlimit:4;stroke-dasharray:none;stroke-dashoffset:0;stroke-opacity:1"
         id="rect2381" width="5" height="195" x="25" y="77" />
      <rect
         style="opacity:1;fill:#008000;fill-opacity:1;stroke:#008000;stroke-width:0.103;stroke-linejoin:miter;stroke-miterlimit:4;stroke-dasharray:none;stroke-dashoffset:0;stroke-opacity:1"
         id="rect2383" width="5" height="195" x="219.99998" y="77" />
      <rect
         style="opacity:1;fill:#008000;fill-opacity:1;stroke:#008000;stroke-width:0.103;stroke-linejoin:miter;stroke-miterlimit:4;stroke-dasharray:none;stroke-dashoffset:0;stroke-opacity:1"
         id="rect2385" width="190" height="5" x="30.000002" y="267" />
      <g id="g1847" transform="translate(0,1.2966078)">
         <circle style="fill:#ff0000;stroke:none;stroke-width:0.264583" id="path1676" cx="125" cy="114.5"
            r="27.499996" />
         <circle style="fill:#008000;stroke:none;stroke-width:0.264583" id="path1678" cx="125" cy="154.5" r="7.5" />
         <circle style="fill:#008000;stroke:none;stroke-width:0.264583" id="path1680" cx="125" cy="192" r="25" />
         <rect style="fill:#008000;stroke:none;stroke-width:0.264583" id="rect1682" width="40" height="10" x="45"
            y="187" />
         <rect style="fill:#008000;stroke:none;stroke-width:0.264583" id="rect1684" width="40" height="10" x="165"
            y="187" />
         <rect style="fill:#008000;stroke:none;stroke-width:0.264583" id="rect1686" width="10" height="25" x="120"
            y="227" />
         <rect style="fill:#008000;stroke:none;stroke-width:0.286886" id="rect1682-9" width="43.37183"
            height="10.842957" x="145.4198" y="35.309898" transform="rotate(46.913946)" />
         <rect style="fill:#008000;stroke:none;stroke-width:0.286886" id="rect1682-9-8" width="43.37183"
            height="10.842957" x="263.39209" y="33.613934" transform="rotate(46.913946)" />
         <rect style="fill:#008000;stroke:none;stroke-width:0.286886" id="rect1682-9-8-7-4" width="43.37183"
            height="10.842957" x="-17.656214" y="218.27855" transform="rotate(-46.913955)" />
         <rect style="fill:#008000;stroke:none;stroke-width:0.286886" id="rect1682-9-8-7-4-5" width="43.37183"
            height="10.842957" x="-135.98994" y="216.19606" transform="rotate(-46.913955)" />
      </g>
   </g>
</svg>