<svg width="24" height="24" viewBox="0 0 24 24" fill="none" xmlns="http://www.w3.org/2000/svg">
<!-- <rect width="24" height="24" fill="white"/> -->
<path d="M4.59873 7L6.22138 10.1145L7.8584 7H9.42362L7.13084 10.9999L9.44277 14.9999H7.87755L6.22138 12.0103L4.57 14.9999H3L5.28799 10.9999L3.02871 7H4.59873ZM11.8361 15.0989C11.5744 15.0989 11.3494 14.9982 11.1612 14.7968C10.9729 14.5919 10.8787 14.3454 10.8787 14.0572C10.8787 13.7725 10.9729 13.5295 11.1612 13.3281C11.3494 13.1232 11.5744 13.0208 11.8361 13.0208C12.0977 13.0208 12.3227 13.1232 12.511 13.3281C12.6993 13.5295 12.7934 13.7725 12.7934 14.0572C12.7934 14.2483 12.7486 14.4235 12.6594 14.5833C12.5731 14.7395 12.4583 14.8646 12.3148 14.9583C12.1711 15.052 12.0116 15.0989 11.8361 15.0989ZM15.6151 18C15.4013 18 15.2067 17.9808 15.0311 17.9427C14.8556 17.9079 14.7248 17.8698 14.6387 17.8281L14.9832 16.552C15.245 16.6284 15.4779 16.6614 15.6821 16.651C15.8863 16.6405 16.0667 16.5572 16.223 16.401C16.3826 16.2447 16.5229 15.9895 16.6442 15.6353L16.8214 15.1041L14.1312 7H15.663L17.525 13.2083H17.6015L19.4635 7H21L17.97 16.0677C17.8297 16.4843 17.651 16.8368 17.434 17.125C17.217 17.4166 16.9586 17.6354 16.6585 17.7812C16.3586 17.927 16.0107 18 15.6151 18Z" class="svg-neutrals"/>
</svg>
