<?xml version="1.0" encoding="UTF-8" standalone="no"?>
<!-- Created with Inkscape (http://www.inkscape.org/) -->

<svg xmlns:dc="http://purl.org/dc/elements/1.1/" xmlns:cc="http://creativecommons.org/ns#"
   xmlns:rdf="http://www.w3.org/1999/02/22-rdf-syntax-ns#" xmlns:svg="http://www.w3.org/2000/svg"
   xmlns="http://www.w3.org/2000/svg" xmlns:sodipodi="http://sodipodi.sourceforge.net/DTD/sodipodi-0.dtd"
   xmlns:inkscape="http://www.inkscape.org/namespaces/inkscape" width="250mm" height="250mm" viewBox="0 0 250 250"
   version="1.1" id="svg8" inkscape:version="0.92.2 (5c3e80d, 2017-08-06)" sodipodi:docname="job.svg">
   <defs id="defs2" />
   <sodipodi:namedview id="base" pagecolor="#ffffff" bordercolor="#666666" borderopacity="1.0"
      inkscape:pageopacity="0.0" inkscape:pageshadow="2" inkscape:zoom="0.98994949" inkscape:cx="501.15143"
      inkscape:cy="465.53835" inkscape:document-units="mm" inkscape:current-layer="layer1" showgrid="true"
      inkscape:window-width="1920" inkscape:window-height="977" inkscape:window-x="0" inkscape:window-y="28"
      inkscape:window-maximized="1">
      <inkscape:grid type="xygrid" id="grid815" units="mm" spacingx="5" spacingy="5" />
   </sodipodi:namedview>
   <metadata id="metadata5">
      <rdf:RDF>
         <cc:Work rdf:about="">
            <dc:format>image/svg+xml</dc:format>
            <dc:type rdf:resource="http://purl.org/dc/dcmitype/StillImage" />
            <dc:title></dc:title>
         </cc:Work>
      </rdf:RDF>
   </metadata>
   <g inkscape:label="Ebene 1" inkscape:groupmode="layer" id="layer1" transform="translate(0,-47)">
      <rect class="svg-neutrals"
         style="opacity:1;fill-opacity:1;stroke:none;stroke-width:0.103;stroke-linejoin:miter;stroke-miterlimit:4;stroke-dasharray:none;stroke-dashoffset:0;stroke-opacity:1"
         id="rect2379" width="200" height="5" x="25" y="72" />
      <rect class="svg-neutrals"
         style="opacity:1;fill-opacity:1;stroke:none;stroke-width:0.103;stroke-linejoin:miter;stroke-miterlimit:4;stroke-dasharray:none;stroke-dashoffset:0;stroke-opacity:1"
         id="rect2381" width="5" height="195" x="25" y="77" />
      <rect class="svg-neutrals"
         style="opacity:1;fill-opacity:1;stroke:none;stroke-width:0.103;stroke-linejoin:miter;stroke-miterlimit:4;stroke-dasharray:none;stroke-dashoffset:0;stroke-opacity:1"
         id="rect2383" width="5" height="195" x="219.99998" y="77" />
      <rect class="svg-neutrals"
         style="opacity:1fill-opacity:1;stroke:none;stroke-width:0.103;stroke-linejoin:miter;stroke-miterlimit:4;stroke-dasharray:none;stroke-dashoffset:0;stroke-opacity:1"
         id="rect2385" width="190" height="5" x="30.000002" y="267" />
      <path class="svg-blue" transform="translate(0, 25)"
         style="opacity:1;fill-opacity:1;stroke:none;stroke-width:10;stroke-linecap:round;stroke-linejoin:miter;stroke-miterlimit:4;stroke-dasharray:none;stroke-dashoffset:0;stroke-opacity:1"
         d="m 50,147 h 100 l 0,-25 50,50 -50,50 V 197 H 50 Z" id="path1426" inkscape:connector-curvature="0"
         sodipodi:nodetypes="cccccccc" />
      <text class="svg-neutrals"
       xml:space="preserve"
       style="font-style:normal;font-weight:normal;font-size:80.55555725px;line-height:1.25;font-family:sans-serif;letter-spacing:0px;word-spacing:0px;fill-opacity:1;stroke:none;stroke-width:0.26458332"
       x="52.307644"
       y="206.45224"
       id="text1902"><tspan
         sodipodi:role="line"
         id="tspan1900"
         x="45.307644"
         y="153.45224"
         style="font-style:normal;font-variant:normal;font-weight:bold;font-stretch:normal;font-size:80.55555725px;font-family:sans-serif;-inkscape-font-specification:'sans-serif Bold';stroke-width:0.26458332">ID</tspan></text>
 
   </g>
</svg>