<?xml version="1.0" encoding="UTF-8" standalone="no"?>
<!-- Created with Inkscape (http://www.inkscape.org/) -->

<svg xmlns:dc="http://purl.org/dc/elements/1.1/" xmlns:cc="http://creativecommons.org/ns#"
   xmlns:rdf="http://www.w3.org/1999/02/22-rdf-syntax-ns#" xmlns:svg="http://www.w3.org/2000/svg"
   xmlns="http://www.w3.org/2000/svg" xmlns:sodipodi="http://sodipodi.sourceforge.net/DTD/sodipodi-0.dtd"
   xmlns:inkscape="http://www.inkscape.org/namespaces/inkscape" width="250mm" height="250mm" viewBox="0 0 250 250"
   version="1.1" id="svg8" inkscape:version="0.92.2 (5c3e80d, 2017-08-06)" sodipodi:docname="sysinfo_large.svg">
   <defs id="defs2">
      <inkscape:perspective sodipodi:type="inkscape:persp3d" inkscape:vp_x="0 : 125 : 1" inkscape:vp_y="0 : 1000 : 0"
         inkscape:vp_z="250 : 125 : 1" inkscape:persp3d-origin="125 : 83.333333 : 1" id="perspective960" />
   </defs>
   <sodipodi:namedview id="base" pagecolor="#ffffff" bordercolor="#666666" borderopacity="1.0"
      inkscape:pageopacity="0.0" inkscape:pageshadow="2" inkscape:zoom="0.7" inkscape:cx="552.31744"
      inkscape:cy="515.26693" inkscape:document-units="mm" inkscape:current-layer="layer1" showgrid="true"
      inkscape:window-width="1920" inkscape:window-height="977" inkscape:window-x="0" inkscape:window-y="28"
      inkscape:window-maximized="1" showguides="true" inkscape:guide-bbox="true">
      <inkscape:grid type="xygrid" id="grid815" units="mm" spacingx="2.5" spacingy="2.5" empspacing="2" />
      <sodipodi:guide position="25,17.5" orientation="1,0" id="guide5744" inkscape:locked="false" />
      <sodipodi:guide position="50,135" orientation="1,0" id="guide5746" inkscape:locked="false" />
      <sodipodi:guide position="74.999999,5" orientation="1,0" id="guide5748" inkscape:locked="false" />
      <sodipodi:guide position="99.999999,2.5" orientation="1,0" id="guide5750" inkscape:locked="false" />
      <sodipodi:guide position="125,99.999999" orientation="1,0" id="guide5752" inkscape:locked="false" />
      <sodipodi:guide position="150,120" orientation="1,0" id="guide5754" inkscape:locked="false" />
      <sodipodi:guide position="175,9.9999999" orientation="1,0" id="guide5756" inkscape:locked="false" />
      <sodipodi:guide position="200,160" orientation="1,0" id="guide5758" inkscape:locked="false" />
      <sodipodi:guide position="225,7.4999999" orientation="1,0" id="guide5760" inkscape:locked="false" />
      <sodipodi:guide position="150,25" orientation="0,1" id="guide5762" inkscape:locked="false" />
      <sodipodi:guide position="165,50" orientation="0,1" id="guide5764" inkscape:locked="false" />
      <sodipodi:guide position="315,74.999999" orientation="0,1" id="guide5766" inkscape:locked="false" />
      <sodipodi:guide position="110,99.999999" orientation="0,1" id="guide5768" inkscape:locked="false" />
      <sodipodi:guide position="89.999999,125" orientation="0,1" id="guide5770" inkscape:locked="false" />
      <sodipodi:guide position="137.5,150" orientation="0,1" id="guide5772" inkscape:locked="false" />
      <sodipodi:guide position="45,175" orientation="0,1" id="guide5774" inkscape:locked="false" />
      <sodipodi:guide position="187.5,225" orientation="0,1" id="guide5778" inkscape:locked="false" />
   </sodipodi:namedview>
   <metadata id="metadata5">
      <rdf:RDF>
         <cc:Work rdf:about="">
            <dc:format>image/svg+xml</dc:format>
            <dc:type rdf:resource="http://purl.org/dc/dcmitype/StillImage" />
            <dc:title></dc:title>
         </cc:Work>
      </rdf:RDF>
   </metadata>
   <g inkscape:label="Ebene 1" inkscape:groupmode="layer" id="layer1" transform="translate(0,-47)">
      <!-- <rect
         style="opacity:1;fill-opacity:1;stroke:none;stroke-width:0.10000006;stroke-linejoin:miter;stroke-miterlimit:4;stroke-dasharray:none;stroke-dashoffset:0;stroke-opacity:1"
         id="rect1870-6-9-3" width="200.55061" height="200.00002" x="25" y="72" /> -->
      <path class="svg-neutrals"
         style="opacity:1;fill-opacity:1;stroke:none;stroke-width:5.00000048;stroke-linejoin:miter;stroke-miterlimit:4;stroke-dasharray:none;stroke-dashoffset:0;stroke-opacity:1"
         d="m 85.291401,85.419286 a 50.038976,50.038259 75 0 0 -6.679185,1.716692 l -1.95543,10.804983 a 40.644924,40.644342 75 0 0 -6.014713,3.535769 L 59.451127,98.531751 a 50.038976,50.038259 75 0 0 -8.673676,10.936029 l 6.066284,8.74773 a 40.644924,40.644342 75 0 0 -2.926952,9.92468 l -9.94574,5.8017 a 50.038976,50.038259 75 0 0 0.73152,9.44522 50.038976,50.038259 75 0 0 0.54711,2.56604 l 10.290851,1.86211 a 40.644924,40.644342 75 0 0 7.020272,12.58881 l -2.818777,10.71334 a 50.038976,50.038259 75 0 0 8.248958,6.29122 l 8.633941,-5.98774 a 40.644924,40.644342 75 0 0 16.350622,3.90833 l 5.3615,9.19013 a 50.038976,50.038259 75 0 0 4.33287,-0.54248 50.038976,50.038259 75 0 0 5.403,-1.32805 L 110,172 a 40.644924,40.644342 75 0 0 13.20749,-9.12744 l 10.10677,2.65961 a 50.038976,50.038259 75 0 0 5.82504,-9.36763 l -6.42399,-9.26306 a 40.644924,40.644342 75 0 0 1.8623,-12.56313 l 9.06193,-5.28634 a 50.038976,50.038259 75 0 0 -0.38079,-3.04296 50.038976,50.038259 75 0 0 -2.74134,-9.56079 l -11.36896,-2.05718 a 40.644924,40.644342 75 0 0 -5.0771,-6.99182 l 2.7449,-10.431538 a 50.038976,50.038259 75 0 0 -12.21822,-7.861467 l -9.46017,6.561306 A 40.644924,40.644342 75 0 0 98.9993,94.367404 l -5.62723,-9.646071 a 50.038976,50.038259 75 0 0 -8.080658,0.697932 z m 5.430377,30.796964 a 18.767491,18.767222 75 0 1 21.741032,15.22293 18.767491,18.767222 75 0 1 -15.22319,21.74126 18.767491,18.767222 75 0 1 -21.741121,-15.22348 18.767491,18.767222 75 0 1 15.223279,-21.74071 z"
         id="path6290" inkscape:connector-curvature="0" />
      <path class="svg-neutrals"
         style="opacity:1;fill-opacity:1;stroke:none;stroke-width:5.00000048;stroke-linejoin:miter;stroke-miterlimit:4;stroke-dasharray:none;stroke-dashoffset:0;stroke-opacity:1"
         d="m 150.07586,157.43442 a 50.038976,50.038259 80 0 0 -6.80339,1.12803 l -2.8897,10.59344 a 40.644924,40.644342 80 0 0 -6.29999,2.9981 l -10.89169,-3.90913 a 50.038976,50.038259 80 0 0 -9.59381,10.13845 l 5.28079,9.24316 a 40.644924,40.644342 80 0 0 -3.78081,9.63181 l -10.41354,4.91279 a 50.038976,50.038259 80 0 0 -0.0945,9.47304 50.038976,50.038259 80 0 0 0.32138,2.60396 L 115,217 a 40.644924,40.644342 80 0 0 5.89637,13.15276 l -3.74178,10.4269 a 50.038976,50.038259 80 0 0 7.66925,6.98622 l 9.12295,-5.21245 a 40.644924,40.644342 80 0 0 15.94777,5.31851 l 4.54013,9.62244 a 50.038976,50.038259 80 0 0 4.36366,-0.16278 50.038976,50.038259 80 0 0 5.49819,-0.85209 l 2.84786,-10.44035 a 40.644924,40.644342 80 0 0 13.95274,-7.94159 l 9.83651,3.53035 a 50.038976,50.038259 80 0 0 6.61932,-8.8243 l -5.59222,-9.7877 a 40.644924,40.644342 80 0 0 2.95016,-12.35301 l 9.48818,-4.47643 a 50.038976,50.038259 80 0 0 -0.11413,-3.06457 50.038976,50.038259 80 0 0 -1.89763,-9.76333 l -11.1464,-3.04022 a 40.644924,40.644342 80 0 0 -4.4484,-7.40771 l 3.64362,-10.15261 A 50.038976,50.038259 80 0 0 178.9496,163.6616 l -9.99603,5.71183 a 40.644924,40.644342 80 0 0 -6.00188,-1.83022 l -4.76511,-10.09981 a 50.038976,50.038259 80 0 0 -8.11074,-0.009 z m 2.72558,31.15306 a 18.767491,18.767222 80 0 1 20.33153,17.05986 18.767491,18.767222 80 0 1 -17.06013,20.33174 18.767491,18.767222 80 0 1 -20.33158,-17.06042 18.767491,18.767222 80 0 1 17.06018,-20.33118 z"
         id="path6290-7" inkscape:connector-curvature="0" />
   </g>
</svg>