<?xml version="1.0" encoding="UTF-8" standalone="no"?>
<!-- Created with Inkscape (http://www.inkscape.org/) -->

<svg xmlns:dc="http://purl.org/dc/elements/1.1/" xmlns:cc="http://creativecommons.org/ns#"
   xmlns:rdf="http://www.w3.org/1999/02/22-rdf-syntax-ns#" xmlns:svg="http://www.w3.org/2000/svg"
   xmlns="http://www.w3.org/2000/svg" xmlns:sodipodi="http://sodipodi.sourceforge.net/DTD/sodipodi-0.dtd"
   xmlns:inkscape="http://www.inkscape.org/namespaces/inkscape" width="250mm" height="250mm" viewBox="0 0 250 250"
   version="1.1" id="svg8" inkscape:version="0.92.2 (5c3e80d, 2017-08-06)" sodipodi:docname="batch.svg">
   <defs id="defs2" />
   <sodipodi:namedview id="base" pagecolor="#ffffff" bordercolor="#666666" borderopacity="1.0"
      inkscape:pageopacity="0.0" inkscape:pageshadow="2" inkscape:zoom="0.98994949" inkscape:cx="534.95584"
      inkscape:cy="494.4309" inkscape:document-units="mm" inkscape:current-layer="layer1" showgrid="true"
      inkscape:window-width="1920" inkscape:window-height="977" inkscape:window-x="0" inkscape:window-y="28"
      inkscape:window-maximized="1">
      <inkscape:grid type="xygrid" id="grid815" units="mm" spacingx="5" spacingy="5" />
   </sodipodi:namedview>
   <metadata id="metadata5">
      <rdf:RDF>
         <cc:Work rdf:about="">
            <dc:format>image/svg+xml</dc:format>
            <dc:type rdf:resource="http://purl.org/dc/dcmitype/StillImage" />
            <dc:title></dc:title>
         </cc:Work>
      </rdf:RDF>
   </metadata>
   <g inkscape:label="Ebene 1" inkscape:groupmode="layer" id="layer1" transform="translate(0,-47)">
      <rect class="svg-neutrals"
         style="opacity:1;fill-opacity:1;stroke:none;stroke-width:9.99999714;stroke-linecap:round;stroke-linejoin:miter;stroke-miterlimit:4;stroke-dasharray:none;stroke-dashoffset:0;stroke-opacity:1"
         id="rect1447-8" width="150" height="150" x="75" y="72" />
      <rect 
         style="opacity:1;fill:#ffffff;fill-opacity:1;stroke:none;stroke-width:9.99999809;stroke-linecap:round;stroke-linejoin:miter;stroke-miterlimit:4;stroke-dasharray:none;stroke-dashoffset:0;stroke-opacity:1"
         id="rect1447-4-4" width="140" height="140" x="80" y="77" />
      <rect class="svg-neutrals"
         style="opacity:1;fill-opacity:1;stroke:none;stroke-width:9.99999714;stroke-linecap:round;stroke-linejoin:miter;stroke-miterlimit:4;stroke-dasharray:none;stroke-dashoffset:0;stroke-opacity:1"
         id="rect1447-6" width="150" height="150" x="50" y="97" />
      <rect
         style="opacity:1;fill:#ffffff;fill-opacity:1;stroke:none;stroke-width:9.99999809;stroke-linecap:round;stroke-linejoin:miter;stroke-miterlimit:4;stroke-dasharray:none;stroke-dashoffset:0;stroke-opacity:1"
         id="rect1447-4-2" width="140" height="140" x="55" y="102" />
      <rect class="svg-neutrals"
         style="opacity:1;fill-opacity:1;stroke:none;stroke-width:9.99999714;stroke-linecap:round;stroke-linejoin:miter;stroke-miterlimit:4;stroke-dasharray:none;stroke-dashoffset:0;stroke-opacity:1"
         id="rect1447" width="150" height="150" x="25.000002" y="122.00001" />
      <rect
         style="opacity:1;fill:#ffffff;fill-opacity:1;stroke:none;stroke-width:9.99999809;stroke-linecap:round;stroke-linejoin:miter;stroke-miterlimit:4;stroke-dasharray:none;stroke-dashoffset:0;stroke-opacity:1"
         id="rect1447-4" width="140" height="140" x="30.000002" y="127.00001" />
      <path class="svg-blue"
         style="opacity:1;fill-opacity:1;stroke:none;stroke-width:10;stroke-linecap:round;stroke-linejoin:miter;stroke-miterlimit:4;stroke-dasharray:none;stroke-dashoffset:0;stroke-opacity:1"
         d="M 50.000002,179.50001 H 115 v -20 L 150,197 115,234.50001 v -20 H 50.000001 Z" id="path1426"
         inkscape:connector-curvature="0" sodipodi:nodetypes="cccccccc" />
   </g>
</svg>