<?xml version="1.0" encoding="UTF-8" standalone="no"?>
<!-- Created with Inkscape (http://www.inkscape.org/) -->

<svg xmlns:dc="http://purl.org/dc/elements/1.1/" xmlns:cc="http://creativecommons.org/ns#"
   xmlns:rdf="http://www.w3.org/1999/02/22-rdf-syntax-ns#" xmlns:svg="http://www.w3.org/2000/svg"
   xmlns="http://www.w3.org/2000/svg" xmlns:sodipodi="http://sodipodi.sourceforge.net/DTD/sodipodi-0.dtd"
   xmlns:inkscape="http://www.inkscape.org/namespaces/inkscape" width="250mm" height="250mm" viewBox="0 0 250 250"
   version="1.1" id="svg8" inkscape:version="0.92.2 (5c3e80d, 2017-08-06)" sodipodi:docname="pool.svg">
   <defs id="defs2" />
   <sodipodi:namedview id="base" pagecolor="#ffffff" bordercolor="#666666" borderopacity="1.0"
      inkscape:pageopacity="0.0" inkscape:pageshadow="2" inkscape:zoom="0.7" inkscape:cx="639.86294"
      inkscape:cy="124.49913" inkscape:document-units="mm" inkscape:current-layer="layer1" showgrid="true"
      inkscape:window-width="1920" inkscape:window-height="977" inkscape:window-x="0" inkscape:window-y="28"
      inkscape:window-maximized="1">
      <inkscape:grid type="xygrid" id="grid815" units="mm" spacingx="5" spacingy="5" />
   </sodipodi:namedview>
   <metadata id="metadata5">
      <rdf:RDF>
         <cc:Work rdf:about="">
            <dc:format>image/svg+xml</dc:format>
            <dc:type rdf:resource="http://purl.org/dc/dcmitype/StillImage" />
            <dc:title></dc:title>
         </cc:Work>
      </rdf:RDF>
   </metadata>
   <g inkscape:label="Ebene 1" inkscape:groupmode="layer" id="layer1" transform="translate(0,-47)">
      <path inkscape:connector-curvature="0"
         style="opacity:1;fill:#ffffff;fill-opacity:1;stroke:#000000;stroke-width:5;stroke-linecap:round;stroke-linejoin:miter;stroke-miterlimit:4;stroke-dasharray:none;stroke-dashoffset:0;stroke-opacity:1"
         d="m 27.500066,117.97849 v 113.19464 1.80506 l 0.16847,0.52917 c 2.541602,19.64876 45.357218,34.55952 97.331524,34.56998 51.94713,-0.0246 94.72101,-15.46065 97.26125,-35.09915 l 0.23874,-2.64583 v 0.84077 -113.19464 z"
         id="path1700" sodipodi:nodetypes="cccccccccc" />
      <ellipse class="svg-blue"
         style="opacity:1;fill-opacity:1;stroke:#000000;stroke-width:5;stroke-linecap:round;stroke-linejoin:miter;stroke-miterlimit:4;stroke-dasharray:none;stroke-dashoffset:0;stroke-opacity:1"
         id="path1700-3" cx="124.99995" cy="112.82646" rx="97.5" ry="36.903797" />
   </g>
</svg>