<svg width="24" height="24" viewBox="0 0 24 24" fill="none" xmlns="http://www.w3.org/2000/svg">
<!-- <rect width="24" height="24" fill="white"/> -->
<path fill-rule="evenodd" clip-rule="evenodd" d="M2.11774 11C2.75941 6.95462 5.95461 3.75942 10 3.11775V6.17393C7.61481 6.73735 5.73734 8.61482 5.17392 11H2.11774ZM5.17392 14C5.73734 16.3852 7.61481 18.2627 10 18.8261V21.8823C5.95461 21.2406 2.75941 18.0454 2.11774 14H5.17392ZM13 3.11776V6.17394C15.3852 6.73736 17.2626 8.61483 17.8261 11H20.8822C20.2406 6.95463 17.0454 3.75944 13 3.11776Z" class="svg-neutrals"/>
<path fill-rule="evenodd" clip-rule="evenodd" d="M7.25604 11C7.70797 9.72138 8.72137 8.70798 10 8.25606V11H7.25604ZM7.25604 14H10V16.744C8.72137 16.292 7.70797 15.2786 7.25604 14ZM13 8.25607V11H15.7439C15.292 9.72139 14.2786 8.708 13 8.25607Z" class="svg-neutrals"/>
</svg>
