<?xml version="1.0" encoding="UTF-8" standalone="no"?>
<!-- Created with Inkscape (http://www.inkscape.org/) -->

<svg xmlns:dc="http://purl.org/dc/elements/1.1/" xmlns:cc="http://creativecommons.org/ns#"
   xmlns:rdf="http://www.w3.org/1999/02/22-rdf-syntax-ns#" xmlns:svg="http://www.w3.org/2000/svg"
   xmlns="http://www.w3.org/2000/svg" xmlns:sodipodi="http://sodipodi.sourceforge.net/DTD/sodipodi-0.dtd"
   xmlns:inkscape="http://www.inkscape.org/namespaces/inkscape" width="250mm" height="250mm" viewBox="0 0 250 250"
   version="1.1" id="svg8" inkscape:version="0.92.2 (5c3e80d, 2017-08-06)" sodipodi:docname="fuel.svg">
   <defs id="defs2" />
   <sodipodi:namedview id="base" pagecolor="#ffffff" bordercolor="#666666" borderopacity="1.0"
      inkscape:pageopacity="0.0" inkscape:pageshadow="2" inkscape:zoom="0.49497475" inkscape:cx="502.14537"
      inkscape:cy="584.30402" inkscape:document-units="mm" inkscape:current-layer="layer2" showgrid="true"
      inkscape:window-width="1920" inkscape:window-height="977" inkscape:window-x="0" inkscape:window-y="28"
      inkscape:window-maximized="1" inkscape:snap-global="true">
      <inkscape:grid type="xygrid" id="grid815" units="mm" spacingx="5" spacingy="5" />
   </sodipodi:namedview>
   <metadata id="metadata5">
      <rdf:RDF>
         <cc:Work rdf:about="">
            <dc:format>image/svg+xml</dc:format>
            <dc:type rdf:resource="http://purl.org/dc/dcmitype/StillImage" />
            <dc:title></dc:title>
         </cc:Work>
      </rdf:RDF>
   </metadata>
   <g inkscape:groupmode="layer" id="layer2" inkscape:label="Ebene 2">
      <path class="svg-red"
         style="opacity:1;fill-opacity:1;stroke:none;stroke-width:5;stroke-linecap:round;stroke-linejoin:round;stroke-miterlimit:4;stroke-dasharray:none;stroke-dashoffset:0;stroke-opacity:1"
         d="M 75.185075,35.448385 C 51.757968,42.516815 45.299724,46.013943 27.879444,60.486002 L 51.09517,120.9603 c 0,0 15.116184,-12.15813 40.041873,-18.79945 z"
         id="path938-9" inkscape:connector-curvature="0" sodipodi:nodetypes="ccccc" />
      <path class="svg-green"
         style="opacity:1;fill-opacity:1;stroke:none;stroke-width:5;stroke-linecap:round;stroke-linejoin:round;stroke-miterlimit:4;stroke-dasharray:none;stroke-dashoffset:0;stroke-opacity:1"
         d="m 174.60077,35.631388 c 23.42711,7.06843 29.91876,10.76601 47.33904,25.238069 l -23.21572,60.474293 c 0,0 -14.54923,-13.67003 -39.47492,-20.31135 z"
         id="path938-9-3" inkscape:connector-curvature="0" sodipodi:nodetypes="ccccc" />
      <path class="svg-neutrals"
         style="opacity:1;fill:none;fill-opacity:1;stroke:#000000;stroke-width:10;stroke-linecap:round;stroke-linejoin:round;stroke-miterlimit:4;stroke-dasharray:none;stroke-dashoffset:0;stroke-opacity:1"
         d="M 50.000001,125 25,59.999999 C 75.000001,15 175,15 225,59.999999 L 200,125 v 0 C 125,65.000002 50.000001,125 50.000001,125 Z"
         id="path938" inkscape:connector-curvature="0" sodipodi:nodetypes="cccccc" />
      <rect class="svg-neutrals"
         style="opacity:1;fill-opacity:1;stroke:none;stroke-width:5;stroke-linecap:round;stroke-linejoin:round;stroke-miterlimit:4;stroke-dasharray:none;stroke-dashoffset:0;stroke-opacity:1"
         id="rect1014" width="10" height="115" x="120" y="54.999996" />
      <circle class="svg-neutrals"
         style="opacity:1;fill-opacity:1;stroke:none;stroke-width:5;stroke-linecap:round;stroke-linejoin:round;stroke-miterlimit:4;stroke-dasharray:none;stroke-dashoffset:0;stroke-opacity:1"
         id="path1012" cx="125" cy="189.72041" r="25" />
      <text xml:space="preserve" class="svg-neutrals"
         style="font-style:normal;font-weight:normal;font-size:50.79999924px;line-height:1.25;font-family:sans-serif;letter-spacing:0px;word-spacing:0px;fill:#000000;fill-opacity:1;stroke:none;stroke-width:0.26458332"
         x="16.291134" y="224.9288" id="text1033">
         <tspan sodipodi:role="line" id="tspan1031" x="16.291134" y="224.9288"
            style="font-size:88.19444275px;stroke-width:0.26458332">E</tspan>
      </text>
      <text xml:space="preserve" class="svg-neutrals"
         style="font-style:normal;font-weight:normal;font-size:50.79999924px;line-height:1.25;font-family:sans-serif;letter-spacing:0px;word-spacing:0px;fill:#000000;fill-opacity:1;stroke:none;stroke-width:0.26458332"
         x="179.46089" y="224.96709" id="text1033-7">
         <tspan sodipodi:role="line" id="tspan1031-7" x="179.46089" y="224.96709"
            style="font-size:88.19445038px;stroke-width:0.26458332">F</tspan>
      </text>
   </g>
</svg>