{
    "FIELDS": [
        {
            "NAME": "RESOURCE_STATES",
            "TYPE": "TABLE",
            "APPEND": "APPEND",
            "APPEND_DEFAULT": {
                "EXIT_STATE": ""
            },
            "TABLE": {
                "FIELDS": [
                    {
                        "NAME": "RESOURCE_STATE",
                        "TRANSLATE": "resource_state",
                        "TYPE": "CHOOSER",
                        "CHOOSER": "ResourceStateDefinitionChooser",
                        "CHOOSER_EDITORFORM_FIELD": "ESP_NAME",
                        "FILTER_METHOD": "filterStatesBasedOnResourceStateProfileID",
                        "ICON_LOOKUP" : "rsd",
                        "LINK_METHOD" : "openResourceState",
                        "USE_LABEL": false
                    },
                    {
                        "VALUE": "DROP",
                        "TRANSLATE": "drop",
                        "ICON_LOOKUP": "drop",
                        "TYPE": "ROW_BUTTON"
                    }
                ],
                "BUTTONS": [
                    {
                        "VALUE": "APPEND",
                        "TRANSLATE": "append",
                        "PROTECT": "N",
                        "ICON_LOOKUP": "append"
                    }
                ]
            }
        }
    ],
    "DIALOG_BUTTONS": [
        {
            "MODE": "CLOSE",
            "TRANSLATE": "cancel",
            "STROKED": true
        },
        {
            "MODE": "CLOSE_WITH_DATA",
            "TRANSLATE": "ok",
            "METHOD": ""
        }
    ]
}