{
    "FIELDS": [
        {
            "NAME": "DESCRIPTION",
            "TITLE_TRANSLATE": "comments",
            "TRANSLATE": "comment",
            "TYPE": "COMMENT",
            "SYS_OBJ_EDITABLE": true,
            "METHOD": "saveParameterComments"
         }
    ],
    "BUTTONS": [
        {
            "VALUE": "APPEND",
            "TRANSLATE": "append",
            "PROTECT": "N",
            "SYS_OBJ_EDITABLE": true,
            "ICON_LOOKUP": "append"
        }
    ],
    "DIALOG_BUTTONS": [
        {
            "MODE": "CLOSE_WITH_DATA",
            "TRANSLATE": "close",
            "SYS_OBJ_EDITABLE": true,
            "METHOD": ""
        }
    ]
}