{
    "FIELDS": [
        {
            "VALUE": "PROPERTIES",
            "TRANSLATE": "user_information",
            "TYPE": "ACCORDION",
            "IS_OPENED": true,
            "MODES": {
                "NEW": 1,
                "EDIT": 1
            },
            "FIELDS": [
                {
                    "NAME": "ID",
                    "TYPE": "TEXT",
                    "TRANSLATE": "id"
                },
                {
                    "NAME": "NAME",
                    "TRANSLATE": "name",
                    "TYPE": "INPUT",
                    "MAX_SIZE": 32,
                    "MIN_SIZE": 1,
                    "MANDATORY": true,
                    "CSS_CLASS": "test"
                },
                {
                    "NAME": "WATCH_TYPE",
                    "USE_LABEL": true,
                    "TRANSLATE": "watchtype",
                    "TYPE": "CHOOSER",
                    "CHOOSER": "WatchTypeChooser",
                    "MANDATORY": true,
                    "ENABLE_CONDITION": "conditionIsNew",
                    "CHOOSE_METHOD": "createConfigForWatchType",
                    "ICON_LOOKUP": "watchtype",
                    "ON_CHANGE": "REFRESH_CONDITIONS",
                    "LINK_METHOD": "openObjectMonitorWatchType",
                    "AUTOCHOOSE": true
                },
                {
                    "NAME": "OWNER",
                    "TYPE": "CHOOSER",
                    "CHOOSER": "GroupChooser",
                    "MANDATORY": true,
                    "FILTER_METHOD": "filterGroupChooserUserInGroupOrCurrent",
                    "LINK_METHOD": "openGroupOwner",
                    "ICON_LOOKUP": "group",
                    "TRANSLATE": "group",
                    "USE_LABEL": true,
                    "PASTE_ALLOWED": true,
                    "PASTE_TYPES": "GROUP",
                    "ENABLE_CONDITION": "conditionInUserGroups"
                },
                {
                    "NAME": "WATCHER",
                    "TRANSLATE": "watcher",
                    "USE_LABEL": true,
                    "TYPE": "CHOOSER",
                    "CHOOSER": "BatchesAndJobDefinitionChooser",
                    "DISPLAY_MODIFIER_DISABLED": "REMOVE_PATH",
                    "ICON_LOOKUP": "job",
                    "LINK_METHOD":"openWatcher"
                },
                {
                    "NAME": "RECREATE",
                    "TYPE": "SELECT",
                    "TRANSLATE": "on_recreate",
                    "DEFAULT": "CREATE",
                    "VALUES": [
                        "CREATE",
                        "CHANGE",
                        "DO NOTHING"
                    ],
                    "USE_LABEL": true,
                    "HIDDEN": false
                },
                {
                    "NAME": "DELETE_AMOUNT",
                    "TRANSLATE": "keep_instances",
                    "TYPE": "INPUT",
                    "REGEX_PATTERN": "^[0-9]*$|^(FOREVER)$",
                    "MAX_SIZE": 7,
                    "MIN_SIZE": 1,
                    "CSS_CLASS": "test"
                },
                {
                    "NAME": "DELETE_BASE",
                    "TYPE": "SELECT",
                    "TRANSLATE": "keep_instance_unit",
                    "DEFAULT": "NONE",
                    "VALUES": [
                        "MINUTE",
                        "HOUR",
                        "DAY",
                        "WEEK",
                        "MONTH",
                        "YEAR"
                    ],
                    "USE_LABEL": true,
                    "HIDDEN": false
                },
                {
                    "NAME": "EVENT_DELETE_AMOUNT",
                    "TRANSLATE": "keep_events",
                    "TYPE": "INPUT",
                    "REGEX_PATTERN": "^[0-9]*$|^(FOREVER)$",
                    "MAX_SIZE": 7,
                    "MIN_SIZE": 1,
                    "CSS_CLASS": "test"
                },
                {
                    "NAME": "EVENT_DELETE_BASE",
                    "TYPE": "SELECT",
                    "TRANSLATE": "keep_event_unit",
                    "DEFAULT": "NONE",
                    "VALUES": [
                        "MINUTE",
                        "HOUR",
                        "DAY",
                        "WEEK",
                        "MONTH",
                        "YEAR"
                    ],
                    "USE_LABEL": true,
                    "HIDDEN": false
                }
            ]
        },
        {
            "VALUE": "CONFIG",
            "TRANSLATE": "config",
            "TYPE": "ACCORDION",
            "MODES": {
                "EDIT": 1
            },
            "CSS": "flex: 1 1 100%",
            "VISIBLE_CONDITION": "conditionHasConfigParameters",
            "FIELDS": [
                {
                    "NAME": "PARAMETERS",
                    "LABEL": "parameters",
                    "TYPE": "TABLE",
                    "MANDATORY": true,
                    "TABLE": {
                        "FIELDS": [
                            {
                                "NAME": "NAME",
                                "TYPE": "TEXT",
                                "TRANSLATE": "name",
                                "USE_LABEL": false
                            },
                            {
                                "NAME": "VALUE",
                                "TYPE": "INPUT",
                                "WIDTH": "24em",
                                "TRANSLATE": "value"
                            },
                            {
                                "NAME": "IS_DEFAULT",
                                "TRANSLATE": "default",
                                "TYPE": "CHECKBOX",
                                "TICKVALUE": "true",
                                "ENABLE_CONDITION": "conditionHasDefault",
                                "ON_CHANGE": "REFRESH_CONDITIONS"
                            },
                            {
                                "NAME": "DEFAULT_VALUE",
                                "TYPE": "TEXT",
                                "TRANSLATE": "default_value",
                                "USE_LABEL": false
                            }
                        ]
                    }
                }
            ]
        },
        {
            "VALUE": "TRIGGERS",
            "LABEL": "Triggers",
            "TRANSLATE": "triggers",
            "CSS": "flex: 1 1 100%",
            "TYPE": "ACCORDION",
            "MODES": {
                "EDIT": 1
            },
            "FIELDS": [
                {
                    "NAME": "TRIGGERS",
                    "TYPE": "TABLE",
                    "APPEND": "APPEND",
                    "APPEND_DEFAULT": {
                        "NAME": "NEW_TRIGGER",
                        "STATES": "ANY->ANY",
                        "SUBMIT_OWNER": "PUBLIC",
                        "ACTIVE": "true"
                    },
                    "APPEND_METHOD" : "AppendTrigger",
                    "TABLE": {
                        "FIELDS": [
                            {
                                "NAME": "ACTIVE",
                                "TYPE": "CHECKBOX",
                                "USE_LABEL": false,
                                "TRANSLATE": "active"
                            },
                            {
                                "NAME": "NAME",
                                "TYPE": "INPUT",
                                "WIDTH": "18em",
                                "USE_LABEL": false,
                                "TRANSLATE": "name"
                            },
                            {
                                "NAME": "IS_CREATE",
                                "TYPE": "CHECKBOX",
                                "USE_LABEL": false,
                                "TRANSLATE": "create"
                            },
                            {
                                "NAME": "IS_CHANGE",
                                "TYPE": "CHECKBOX",
                                "USE_LABEL": false,
                                "TRANSLATE": "update"
                            },
                            {
                                "NAME": "IS_DELETE",
                                "TYPE": "CHECKBOX",
                                "USE_LABEL": false,
                                "TRANSLATE": "delete"
                            },
                            {
                                "NAME": "SUBMIT_NAME",
                                "TRANSLATE": "submit",
                                "USE_LABEL": false,
                                "TYPE": "CHOOSER",
                                "CHOOSER": "BatchesAndJobDefinitionChooser",
                                "DISPLAY_MODIFIER": "REMOVE_PATH",
                                "ICON_LOOKUP": {
                                   "PREFIX": "",
                                   "RECORD_PROPERTY": "SUBMIT_TYPE"
                                },
                                "LINK_METHOD": "openSubmitName",
                                "TOOLTIP": true,
                                "TOOLTIP_LOOKUP":"SUBMIT_NAME",
                                "AUTOCHOOSE": true

                            },
                            {
                                "NAME": "MASTER",
                                "TYPE": "CHECKBOX",
                                "USE_LABEL": false,
                                "TRANSLATE": "master",
                                "ON_CHANGE": "REFRESH_CONDITIONS"
                            },
                            {
                                "NAME": "SUBMIT_OWNER",
                                "TRANSLATE": "submit_group",
                                "TYPE": "SELECT",
                                "VALUES": {
                                    "COMMAND": "list group",
                                    "FIELD": "NAME"
                                },
                                "ADD_CURRENT": true,
                                "MANDATORY": true,
                                "VISIBLE_CONDITION": "conditionIsMaster"
                            },
                            {
                                "NAME": "SUSPEND",
                                "TYPE": "CHECKBOX",
                                "USE_LABEL": false,
                                "TRANSLATE": "suspend"
                            },
                            {
                                "NAME": "IS_GROUP",
                                "TYPE": "CHECKBOX",
                                "USE_LABEL": false,
                                "TRANSLATE": "grouped",
                                "ON_CHANGE": "REFRESH_CONDITIONS"
                            },
                            {
                                "NAME": "MAIN_NAME",
                                "TRANSLATE": "main",
                                "USE_LABEL": false,
                                "TYPE": "CHOOSER",
                                "CHOOSER": "noneableBatchesAndJobDefinitionChooser",
                                "DISPLAY_MODIFIER": "REMOVE_PATH",
                                "ICON_LOOKUP": {
                                   "PREFIX": "",
                                   "RECORD_PROPERTY": "MAIN_TYPE"
                                },
                                "VISIBLE_CONDITION": "conditionIsGrouped",
                                "ON_CHANGE": "REFRESH_CONDITIONS",
                                "LINK_METHOD": "openMainName",
                                "TOOLTIP": true,
                                "TOOLTIP_LOOKUP":"MAIN_NAME"
                            },
                            {
                                "NAME": "PARENT_NAME",
                                "TRANSLATE": "parent",
                                "USE_LABEL": false,
                                "TYPE": "CHOOSER",
                                "CHOOSER": "noneableBatchesAndJobDefinitionChooser",
                                "DISPLAY_MODIFIER": "REMOVE_PATH",
                                "ICON_LOOKUP": {
                                   "PREFIX": "",
                                   "RECORD_PROPERTY": "PARENT_TYPE"
                                },
                                "VISIBLE_CONDITION": "conditionHasMain",
                                "LINK_METHOD": "openParentName",
                                "TOOLTIP": true,
                                "TOOLTIP_LOOKUP":"PARENT_NAME"
                            },
                            {
                                "VALUE": "DROP",
                                "TRANSLATE": "drop",
                                "ICON_LOOKUP": "drop",
                                "TYPE": "ROW_BUTTON"
                            }
                        ],
                        "BUTTONS": [
                            {
                                "VALUE": "APPEND",
                                "TRANSLATE": "append",
                                "PROTECT": "N",
                                "ICON_LOOKUP": "append"
                            }
                        ]
                    }
                }
            ]
        },
        {
            "VALUE": "OBJECT_INSTANCES",
            "TRANSLATE": "object_instances",
            "CSS": "flex: 1 1 100%",
            "TYPE": "ACCORDION",
            "MODES": {
                "EDIT": 1
            },
            "VISIBLE_CONDITION": "!conditionIsNew",
            "FIELDS": [
                {
                    "NAME": "OBJECT_INSTANCES",
                    "TYPE": "TREE-TABLE",
                    "PATH_DEFINITION": "PATH",
                    "NAME_DEFINITION": "DISPLAY_UNIQUE_NAME",
                    "NAME_TRANSLATE": "unique_name_event",
                    "TREE_CELL_TYPE": "OBJECT_INSTANCE",
                    "COLLAPSED": "true",
                    "EXPAND_ROOTS": "false",
                    "TABLE": {
                        "FIELDS": [
                            {
                                "NAME": "TRIGGERNAME",
                                "TYPE": "TEXT",
                                "USE_LABEL": false,
                                "TRANSLATE": "_trigger",
                                "CSS_CLASS": "editorform_nowrap"
                            },
                            {
                                "NAME": "DISPLAY_MAIN_JOBNAME",
                                "TYPE": "TEXT",
                                "USE_LABEL": false,
                                "TRANSLATE": "_jobbatch",
                                "CSS_CLASS": "editorform_nowrap",
                                "ICON_LOOKUP": {
                                    "PREFIX": "",
                                    "RECORD_PROPERTY": "MAIN_JOBTYPE"
                                 },
                                 "ON_CLICK": "openMonitorJobsForInstances",
                                 "ENABLE_CONDITION" : "conditionInMem",
                                 "TOOLTIP": true,
                                 "TOOLTIP_LOOKUP":"MAIN_JOBNAME"
 
                            },
                            {
                                "NAME": "CREATE_TS",
                                "TYPE": "TEXT",
                                "USE_LABEL": false,
                                "TRANSLATE": "created_state",
                                "CSS_CLASS": "editorform_nowrap"
                            },
                            {
                                "NAME": "MODIFY_TS",
                                "TYPE": "TEXT",
                                "USE_LABEL": false,
                                "TRANSLATE": "changed_exit_state",
                                "CSS_CLASS": "editorform_nowrap"
                            },
                            {
                                "NAME": "REMOVE_TS",
                                "TYPE": "TEXT",
                                "USE_LABEL": false,
                                "TRANSLATE": "removed_final",
                                "CSS_CLASS": "editorform_nowrap"
                            }
                        ]
                    }
                }
            ]
        },
        {
            "VALUE": "OBJECT_EVENTS",
            "TRANSLATE": "object_events",
            "CSS": "flex: 1 1 100%",
            "TYPE": "ACCORDION",
            "MODES": {
                "EDIT": 1
            },
            "VISIBLE_CONDITION": "!conditionIsNew",
            "FIELDS": [
                {
                    "NAME": "OBJECT_EVENTS",
                    "TYPE": "TREE-TABLE",
                    "PATH_DEFINITION": "EVENT_PATH",
                    "NAME_DEFINITION": "EVENT",
                    "NAME_TRANSLATE": "event",
                    "TREE_CELL_TYPE": "OBJECT_EVENT",
                    "COLLAPSED": "true",
                    "EXPAND_ROOTS": "false",
                    "TABLE": {
                        "FIELDS": [
                            {
                                "NAME": "EVENT_TRIGGERNAME",
                                "TYPE": "TEXT",
                                "USE_LABEL": false,
                                "TRANSLATE": "trigger",
                                "CSS_CLASS": "editorform_nowrap"
                            },
                            {
                                "NAME": "EVENT_DISPLAY_JOBNAME",
                                "TYPE": "TEXT",
                                "USE_LABEL": false,
                                "TRANSLATE": "jobbatch",
                                "CSS_CLASS": "editorform_nowrap",
                                "ICON_LOOKUP": {
                                    "PREFIX": "",
                                    "RECORD_PROPERTY": "EVENT_JOBTYPE"
                                 },
                                 "ON_CLICK": "openMonitorJobsForEvents",
                                 "ENABLE_CONDITION" : "conditionInMem",
                                 "TOOLTIP": true,
                                 "TOOLTIP_LOOKUP":"EVENT_DISPLAY_FULL_JOBNAME"
                            },
                            {
                                "NAME": "EVENT_JOBSTATE",
                                "TYPE": "TEXT",
                                "USE_LABEL": false,
                                "TRANSLATE": "state",
                                "CSS_CLASS": "editorform_nowrap"
                            },
                            {
                                "NAME": "EVENT_FINAL_EXIT_STATE",
                                "TYPE": "TEXT",
                                "USE_LABEL": false,
                                "TRANSLATE": "exit_state",
                                "CSS_CLASS": "editorform_nowrap"
                            },
                            {
                                "NAME": "EVENT_FINAL_TS",
                                "TYPE": "TEXT",
                                "USE_LABEL": false,
                                "TRANSLATE": "final",
                                "CSS_CLASS": "editorform_nowrap"
                            },
                            {
                                "NAME": "EVENT_UNIQUE_NAME",
                                "TYPE": "TEXT",
                                "USE_LABEL": false,
                                "TRANSLATE": "unique_name",
                                "CSS_CLASS": "editorform_nowrap"
                            }
                        ]
                    }
                }
            ]
        },
        {
            "VALUE": "COMMENTS",
            "TRANSLATE": "comments",
            "VISIBLE_CONDITION": "!conditionIsNew",
            "TYPE": "ACCORDION",
            "CSS": "flex: 1 1 100%",
            "IS_OPENED": false,
            "MODES": {
               "NEW": 1,
               "EDIT": 1
            },
            "FIELDS": [
                {
                    "NAME": "COMMENT",
                    "TRANSLATE": "comment",
                    "TYPE": "COMMENT",
                    "TITLE_TRANSLATE": "comments",
                    "TYPEFIELD": "COMMENTTYPE"
                }
            ]
        },
        {
            "VALUE": "HISTORY",
            "TRANSLATE": "history",
            "VISIBLE_CONDITION": "!conditionIsNew",
            "TYPE": "ACCORDION",
            "CSS": "flex: 1 1 100%",
            "IS_OPENED": false,
            "MODES": {
               "NEW": 1,
               "EDIT": 1
            },
            "FIELDS": [
                {
                    "NAME": "CREATOR",
                    "TRANSLATE": "creator",
                    "ICON_LOOKUP" : "serveruser",
                    "ON_CLICK" : "openCreator",
                    "TYPE": "TEXT"
                },
                {
                    "NAME": "CREATE_TIME",
                    "TRANSLATE": "created",
                    "TYPE": "TEXT"
                },
                {
                    "NAME": "CHANGER",
                    "TRANSLATE": "last_changer",
                    "ICON_LOOKUP" : "serveruser",
                    "ON_CLICK" : "openChanger",
                    "TYPE": "TEXT"
                },
                {
                    "NAME": "CHANGE_TIME",
                    "TRANSLATE": "last_changed",
                    "TYPE": "TEXT"
                }
            ]
        }
    ],
    "BUTTONS": [
        {
            "NAME": "REFRESH",
            "VALUE": "REFRESH",
            "TRANSLATE": "refresh",
            "ICON_LOOKUP": "refresh",
            "CHANGED" :"N",
            "ENABLE_CONDITION": "!conditionIsNew",
            "HIDE_DISABLED" : true
        },
        {
            "VALUE": "REVERT",
            "TRANSLATE": "revert",
            "PROTECT": "N",
            "MODES": {
                "EDIT": 1
            },
            "CHANGED": "Y",
            "CONFIRM": "Do you really want to lose your changes ?",
            "ICON_LOOKUP": "revert",
            "HIDE_DISABLED" : true
        },
        {
            "NAME": "SAVE",
            "VALUE": "SAVE",
            "TRANSLATE": "save",
            "PROTECT": "Y",
            "CHANGED": "Y",
            "METHOD": "save",
            "ICON_LOOKUP": "save"
        },
        {
            "VALUE": "CLONE",
            "TRANSLATE": "clone",
            "PROTECT": "N",
            "MODES": {
                "EDIT": 1
            },
            "CHANGED": "Y",
            "ICON_LOOKUP": "clone"
        },
        {
            "VALUE": "DROP",
            "TRANSLATE": "drop",
            "PROTECT": "Y",
            "MODES": {
                "EDIT": 1
            },
            "CONFIRM": "Do You really want to drop this Watch Type ?",
            "ICON_LOOKUP": "drop",
            "PRIVS": "D"
        },
        {
            "VALUE": "EXPORT",
            "TRANSLATE": "export",
            "PROTECT": "N",
            "PRIVS": "E",
            "MODES": {
                "EDIT": 1
            },
            "AVAILABLE": [
                "PROFESSIONAL",
                "ENTERPRISE"
            ],
            "CHANGED": "N",
            "ICON_LOOKUP": "export"
        }
    ]
}