{
   "FIELDS": [
      {
         "VALUE": "PROPERTIES",
         "LABEL": "Properties",
         "TRANSLATE": "properties",
         "TYPE": "ACCORDION",
         "CSS": "flex: 1 1 100%",
         "IS_OPENED": true,
         "MODES": {
            "NEW": 1,
            "EDIT": 1
         },
         "FIELDS": [
            {
               "NAME": "OPEN_ID",
               "TYPE": "TEXT",
               "TRANSLATE": "id",
               "ON_CLICK": "createOrOpenDetailTree",
               "TOOLTIP": true,
               "TOOLTIP_MESSAGE": "open_detail_list",
               "CSS_CONDITION": "openIDColorCondition"
            },
            {
               "NAME": "DISPLAY_STATE",
               "TYPE": "TEXT",
               "TRANSLATE": "state",
               "CSS_CONDITION": "displayStateColorCondition"
            },
            {
               "NAME": "ERROR_MSG",
               "TYPE": "TEXT",
               "TRANSLATE": "error",
               "VISIBLE_CONDITION": "conditionStateError",
               "CSS_CONDITION": "displayStateColorCondition"
            },
            {
               "NAME": "APPROVAL_PENDING",
               "TYPE": "TEXT",
               "TRANSLATE": "approval_pending",
               "VISIBLE_CONDITION": "conditionApprovalPending",
               "CSS_CLASS": "crud-color-purple"
            },
            {
               "NAME": "FINAL_ESD_ID",
               "TYPE": "TEXT",
               "TRANSLATE": "exit_state"
            },
            {
               "NAME": "SE_TYPE",
               "TRANSLATE": "type",
               "TYPE": "TEXT"
            },
            {
               "NAME": "SUBMIT_PATH",
               "TYPE": "TEXT",
               "DISPLAY_MODIFIER": "REMOVE_PATH",
               "TOOLTIP": true,
               "TOOLTIP_LOOKUP": "SUBMIT_PATH",
               "TRANSLATE": "path"
            },
            {
               "NAME": "IS_DISABLED",
               "TYPE": "TEXT",
               "TRANSLATE": "disabled"
            },
            {
               "NAME": "SUBMITTAG",
               "TYPE": "TEXT",
               "TRANSLATE": "submittag"
            },
            {
               "NAME": "OWNER",
               "TRANSLATE": "owner",
               "TYPE": "TEXT"
            },
            {
               "NAME": "SE_OWNER",
               "TYPE": "TEXT",
               "TRANSLATE": "se_owner"
            },
            {
               "NAME": "SE_EXPECTED_RUNTIME",
               "TYPE": "TEXT",
               "TRANSLATE": "expected_runtime"
            },
            {
               "NAME": "NICEVALUE",
               "TRANSLATE": "nice_value",
               "TYPE": "INPUT",
               "MAX_SIZE": 3,
               "INPUT_TYPE_DISABLED": "number",
               "DEFAULT": "50",
               "EDIT_MODES": {
                  "EDIT": 1,
                  "NEW": 1
               },
               "REGEX_PATTERN": "^[0-9]*$",
               "ENABLE_CONDITION": "conditionCanEditPriority"
            },
            {
               "NAME": "IS_SUSPENDED",
               "TYPE": "TEXT",
               "TRANSLATE": "suspended"
            },
            {
               "NAME": "RESUME_TS",
               "TYPE": "TEXT",
               "TRANSLATE": "resume_time"
            },
            {
               "NAME": "IS_CANCELLED",
               "TYPE": "TEXT",
               "TRANSLATE": "is_cancelled"
            },
            {
               "NAME": "PARENT_SUSPENDED",
               "TRANSLATE": "parent_suspended",
               "TYPE": "TEXT"
            },
            {
               "NAME": "SE_ESP_NAME",
               "TYPE": "TEXT",
               "TRANSLATE": "exit_state_profile"
            },
            {
               "NAME": "MASTER_ID",
               "TRANSLATE": "master_id",
               "TYPE": "TEXAT"
            },
            {
               "NAME": "TIME_ZONE",
               "TYPE": "TEXT",
               "TRANSLATE": "time_zone"
            },
            {
               "NAME": "PARENT_ID",
               "TYPE": "TEXT",
               "TRANSLATE": "parent_id"
            },
            {
               "NAME": "IS_STATIC",
               "TRANSLATE": "is_static",
               "TYPE": "TEXAT"
            },
            {
               "NAME": "MERGE_MODE",
               "TYPE": "TEXT",
               "TRANSLATE": "merge_mode"
            },
            {
               "NAME": "SE_VERSION",
               "TYPE": "TEXT",
               "TRANSLATE": "version"
            }
         ]
      },
      {
         "VALUE": "RUN",
         "LABEL": "Run",
         "IS_OPENED": true,
         "TRANSLATE": "run",
         "TYPE": "ACCORDION",
         "CSS": "flex: 1 1 100%",
         "CONDITION": "ConditionIsJob",
         "MODES": {
            "NEW": 1,
            "EDIT": 1
         },
         "FIELDS": [
            {
               "NAME": "STATE",
               "TYPE": "TEXT",
               "TRANSLATE": "state"
            },
            {
               "NAME": "ERROR_MSG",
               "TYPE": "TEXT",
               "TRANSLATE": "error",
               "VISIBLE_CONDITION": "conditionStateError"
            },
            {
               "NAME": "JOB_ESD_ID",
               "TYPE": "TEXT",
               "TRANSLATE": "job_exit_state"
            },
            {
               "NAME": "JOB_IS_FINAL",
               "TYPE": "TEXT",
               "TRANSLATE": "is_final"
            },
            {
               "NAME": "Exit_State_Mapping",
               "TYPE": "TEXT",
               "TRANSLATE": "esm"
            },
            {
               "NAME": "PRIORITY",
               "LABEL": "Priority",
               "TRANSLATE": "priority",
               "TYPE": "INPUT",
               "MAX_SIZE": 4,
               "DEFAULT": "50",
               "EDIT_MODES": {
                  "EDIT": 1,
                  "NEW": 1
               },
               "REGEX_PATTERN": "^[0-9]*$",
               "HINT": "[0,100] lower value means higher priority",
               "ENABLE_CONDITION": "conditionCanEditPriority"
            },
            {
               "NAME": "RAW_PRIORITY",
               "TRANSLATE": "raw_priority",
               "TYPE": "TEXT"
            },
            {
               "NAME": "DYNAMIC_PRIORITY",
               "TYPE": "TEXT",
               "TRANSLATE": "dynamic_priority"
            },
            {
               "NAME": "SCOPE_ID",
               "TYPE": "TEXT",
               "TRANSLATE": "server"
            },
            {
               "NAME": "PID",
               "TYPE": "TEXT",
               "TRANSLATE": "pid"
            },
            {
               "NAME": "SE_RUN_PROGRAM",
               "TRANSLATE": "run_program",
               "TYPE": "TEXT"
            },
            {
               "NAME": "COMMANDLINE",
               "TYPE": "TEXT",
               "TRANSLATE": "commandline"
            },
            {
               "NAME": "SE_RERUN_PROGRAM",
               "TYPE": "TEXT",
               "TRANSLATE": "rerun_program"
            },
            {
               "NAME": "RR_COMMANDLINE",
               "TYPE": "TEXT",
               "TRANSLATE": "rerun_commandline"
            },
            {
               "NAME": "SE_WORKDIR",
               "TRANSLATE": "workdir_definition",
               "TYPE": "TEXT"
            },
            {
               "NAME": "SE_ERRLOGFILE",
               "TYPE": "TEXT",
               "TRANSLATE": "logfile_definition"
            },
            {
               "NAME": "LOGFILE",
               "TYPE": "TEXT",
               "TRANSLATE": "logfile",
               "ON_CLICK": "openLogfile",
               "TOOLTIP": true,
               "TOOLTIP_MESSAGE": "open_logfile",
               "ICON_LOOKUP": "log"
            },
            {
               "NAME": "SE_ERRLOGFILE",
               "TYPE": "TEXT",
               "TRANSLATE": "error_logfile_definition"

            },
            {
               "NAME": "ERRLOGFILE",
               "TRANSLATE": "error_logfile",
               "ON_CLICK": "openErrorLogfile",
               "TOOLTIP": true,
               "TOOLTIP_MESSAGE": "open_error_logfile",
               "TYPE": "TEXT",
               "ICON_LOOKUP": "log"
            },
            {
               "NAME": "SE_ENV_NAME",
               "TYPE": "TEXT",
               "TRANSLATE": "env"
            },
            {
               "NAME": "SE_FP_NAME",
               "TYPE": "TEXT",
               "TRANSLATE": "footprint"
            },
            {
               "NAME": "SE_EXPECTED_RUNTIME",
               "TRANSLATE": "expected_runtime",
               "TYPE": "TEXAT"
            },
            {
               "NAME": "SE_KILL_PROGRAM",
               "TYPE": "TEXT",
               "TRANSLATE": "kill_program"
            },
            {
               "NAME": "KILL_ID",
               "TYPE": "TEXT",
               "TRANSLATE": "kill_id"
            },
            {
               "NAME": "KILL_EXIT_CODE",
               "TYPE": "TEXT",
               "TRANSLATE": "kill_exit_code"
            }
         ]
      },
      {
         "VALUE": "Timestamps_and_statistics",
         "LABEL": "Timestamps and statistics",
         "TRANSLATE": "timestamps_and_statistics",
         "TYPE": "ACCORDION",
         "CSS": "flex: 1 1 100%",
         "LAZY_LOADING": true,
         "FIELDS": [
            {
               "NAME": "RUNS",
               "TRANSLATE": "run",
               "TYPE": "TABLE",
               "TABLE": {
                  "FIELDS": [
                     {
                        "NAME": "RERUN_SEQ",
                        "TRANSLATE": "#",
                        "USE_LABEL": false,
                        "TYPE": "TEXT"
                     },
                     {
                        "NAME": "START_TS",
                        "TRANSLATE": "start",
                        "USE_LABEL": false,
                        "TYPE": "TEXT"
                     },
                     {
                        "NAME": "FINISH_TS",
                        "TYPE": "TEXT",
                        "USE_LABEL": false,
                        "TRANSLATE": "end"
                     },
                     {
                        "NAME": "RUNTIME",
                        "TYPE": "TEXT",
                        "USE_LABEL": false,
                        "TRANSLATE": "runtime"
                     },
                     {
                        "NAME": "JOB_ESD_ID",
                        "TYPE": "TEXT",
                        "USE_LABEL": false,
                        "TRANSLATE": "exit_state"
                     },
                     {
                        "NAME": "LOGFILE",
                        "TYPE": "TEXT",
                        "USE_LABEL": false,
                        "TRANSLATE": "logfile"
                     },
                     {
                        "NAME": "ERRLOGFILE",
                        "TRANSLATE": "error_logfile",
                        "USE_LABEL": false,
                        "TYPE": "TEXT"
                     },
                     {
                        "NAME": "WORKDIR",
                        "TRANSLATE": "workdir",
                        "USE_LABEL": false,
                        "TYPE": "TEXT"
                     },
                     {
                        "NAME": "COMMANDLINE",
                        "TYPE": "TEXT",
                        "USE_LABEL": false,
                        "TRANSLATE": "commandline"
                     },
                     {
                        "NAME": "SCOPE_ID",
                        "TYPE": "TEXT",
                        "TRANSLATE": "server",
                        "USE_LABEL": false
                     },
                     {
                        "NAME": "EXIT_CODE",
                        "TYPE": "TEXT",
                        "USE_LABEL": false,
                        "TRANSLATE": "exit_code"
                     },
                     {
                        "NAME": "EXT_PID",
                        "TYPE": "TEXT",
                        "USE_LABEL": false,
                        "TRANSLATE": "pid"
                     },
                     {
                        "NAME": "SYNC_TS",
                        "TYPE": "TEXT",
                        "TRANSLATE": "synchronize",
                        "USE_LABEL": false
                     },
                     {
                        "NAME": "RESOURCE_TS",
                        "TYPE": "TEXT",
                        "TRANSLATE": "resource",
                        "USE_LABEL": false
                     },
                     {
                        "NAME": "RUNNABLE_TS",
                        "TYPE": "TEXT",
                        "USE_LABEL": false,
                        "TRANSLATE": "runnable"
                     }
                  ]
               }
            },
            {
               "NAME": "SUBMIT_TS",
               "TRANSLATE": "submit_ts",
               "TYPE": "TEXT"
            },
            {
               "NAME": "FINAL_TS",
               "TRANSLATE": "final",
               "TYPE": "TEXT"
            },
            {
               "NAME": "PROCESS_TIME",
               "TYPE": "TEXT",
               "TRANSLATE": "process_time"
            },
            {
               "NAME": "ACTIVE_TIME",
               "TYPE": "TEXT",
               "TRANSLATE": "active_time"
            },
            {
               "NAME": "IDLE_TIME",
               "TRANSLATE": "idle",
               "TYPE": "TEXT"
            },
            {
               "NAME": "IDLE_PCT",
               "TYPE": "TEXT",
               "TRANSLATE": "idle_percentage",
               "UNIT": "%"
            },
            {
               "NAME": "DEPENDENCY_WAIT_TIME",
               "TYPE": "TEXT",
               "TRANSLATE": "dependency_wait_time"
            },
            {
               "NAME": "SUSPEND_TIME",
               "TYPE": "TEXT",
               "TRANSLATE": "suspend_time"
            },
            {
               "NAME": "SYNC_TIME",
               "TYPE": "TEXT",
               "TRANSLATE": "sync_time"
            },
            {
               "NAME": "RESOURCE_TIME",
               "TRANSLATE": "resource_time",
               "TYPE": "TEXT"
            },
            {
               "NAME": "AGING_AMOUNT",
               "TYPE": "TEXT",
               "TRANSLATE": "aging_amount"
            },
            {
               "NAME": "JOBSERVER_TIME",
               "TYPE": "TEXT",
               "TRANSLATE": "jobserver_time"
            },
            {
               "NAME": "RESTARTABLE_TIME",
               "TYPE": "TEXT",
               "TRANSLATE": "restartable_time"
            },
            {
               "NAME": "CHILD_WAIT_TIME",
               "TYPE": "TEXT",
               "TRANSLATE": "child_wait_time"
            }
         ]
      },
      {
         "VALUE": "AUDIT",
         "LABEL": "audit",
         "TRANSLATE": "audit",
         "TYPE": "ACCORDION",
         "LAZY_LOADING": true,
         "CSS": "flex: 1 1 100%",
         "MODES": {
            "NEW": 1,
            "EDIT": 1
         },
         "FIELDS": [
            {
               "NAME": "NOFORM_AUDIT_TRAIL",
               "TYPE": "TABLE",
               "TRANSLATE": "audit_trail",
               "TABLE": {
                  "FIELDS": [
                     {
                        "NAME": "TIME",
                        "TYPE": "TEXT",
                        "USE_LABEL": false,
                        "TRANSLATE": "timestamp",
                        "CSS_CLASS": "editorform_nowrap"
                     },
                     {
                        "NAME": "JOBID",
                        "TYPE": "TEXT",
                        "USE_LABEL": false,
                        "TRANSLATE": "jobid"
                     },
                     {
                        "NAME": "JOBNAME",
                        "TYPE": "TEXT",
                        "USE_LABEL": false,
                        "TRANSLATE": "jobname",
                        "DISPLAY_MODIFIER": "REMOVE_PATH",
                        "TOOLTIP": true,
                        "TOOLTIP_LOOKUP": "JOBNAME"
                     },
                     {
                        "NAME": "USERNAME",
                        "TYPE": "TEXT",
                        "USE_LABEL": false,
                        "TRANSLATE": "username"
                     },
                     {
                        "NAME": "ACTION",
                        "TYPE": "TEXT",
                        "USE_LABEL": false,
                        "TRANSLATE": "action"
                     },
                     {
                        "NAME": "COMMENT",
                        "CSS_CLASS": "editorform_nowrap",
                        "TYPE": "TEXT",
                        "USE_LABEL": false,
                        "TRANSLATE": "comment"
                     },
                     {
                        "NAME": "INFO",
                        "TYPE": "TEXT",
                        "USE_LABEL": false,
                        "CSS_CLASS": "editorform_nowrap",
                        "TRANSLATE": "info"
                     },
                     {
                        "NAME": "ORIGINID",
                        "TYPE": "TEXT",
                        "USE_LABEL": false,
                        "TRANSLATE": "origin",
                        "DISPLAY_MODIFIER": "REMOVE_PATH",
                        "TOOLTIP": true,
                        "TOOLTIP_LOOKUP": "ORIGINID"
                     }
                  ],
                  "BUTTONS": [
                     {
                        "VALUE": "APPLY_AUDIT_FILTER",
                        "TRANSLATE": "apply_audit_filter",
                        "ICON_LOOKUP": "find",
                        "ENABLE_CONDITION": "applyAuditCondition",
                        "METHOD": "applyAuditFilter"
                     }
                  ]
               }
            },
            {
               "NAME": "AUDIT_FILTER",
               "TRANSLATE": "audit_filters",
               "TYPE": "TEXT"
            },
            {
               "NAME": "NOFORM_RECURSIVE",
               "TRANSLATE": "recursive",
               "USE_LABEL": true,
               "TYPE": "CHECKBOX",
               "IS_FORM": false,
               "TICKVALUE": "true"
            },
            {
               "NAME": "NOFORM_OPERATOR_ACTION",
               "TRANSLATE": "operator_action",
               "USE_LABEL": true,
               "TYPE": "CHECKBOX",
               "IS_FORM": false,
               "TICKVALUE": "true"
            },
            {
               "NAME": "NOFORM_RUNTIME_EXCEPTION",
               "TRANSLATE": "runtime_exceptions",
               "USE_LABEL": true,
               "TYPE": "CHECKBOX",
               "IS_FORM": false,
               "TICKVALUE": "true"
            },
            {
               "NAME": "NOFORM_RUNTIME_INFO",
               "TRANSLATE": "runtime_info",
               "USE_LABEL": true,
               "TYPE": "CHECKBOX",
               "IS_FORM": false,
               "TICKVALUE": "true"
            }
         ]
      },
      {
         "VALUE": "PARAMETER",
         "LABEL": "Parameter",
         "CSS": "flex: 1 1 100%",
         "TRANSLATE": "parameter",
         "TYPE": "ACCORDION",
         "LAZY_LOADING": true,
         "FIELDS": [
            {
               "NAME": "PARAMETER",
               "TRANSLATE": "parameter",
               "TYPE": "TABLE",
               "TABLE": {
                  "FIELDS": [
                     {
                        "NAME": "NAME",
                        "TYPE": "TEXT",
                        "USE_LABEL": false,
                        "TRANSLATE": "name"
                     },
                     {
                        "NAME": "TYPE",
                        "TRANSLATE": "type",
                        "USE_LABEL": false,
                        "TYPE": "TEXT"
                     },
                     {
                        "NAME": "VALUE",
                        "TRANSLATE": "value",
                        "USE_LABEL": false,
                        "TYPE": "TEXTAREA",
                        "FIXEDFONT": 1,
                        "ROWS": 2,
                        "COLUMNS": 64,
                        "ENABLE_CONDITION": "conditionCanEditParameter",
                        "ON_CHANGE": "REFRESH_CONDITIONS"
                     }
                  ]
               }
            },
            {
               "NAME": "NOFORM_SET_PARAMETER_COMMENT",
               "AVAILABLE": [
                  "PROFESSIONAL",
                  "ENTERPRISE"
               ],
               "VISIBLE_CONDITION": "conditionParameterEdited",
               "TRANSLATE": "audit_comment",
               "TYPE": "TEXTAREA",
               "COLUMNS": 40,
               "ROWS": 4
           }
         ]
      },
      {
         "VALUE": "REQUIRED_RESOURCES",
         "LABEL": "Required Resources",
         "TRANSLATE": "required_resources",
         "TYPE": "ACCORDION",
         "CSS": "flex: 1 1 100%",
         "LAZY_LOADING": true,
         "CONDITION": "ConditionIsJob",
         "MODES": {
            "NEW": 1,
            "EDIT": 1
         },
         "VISIBLE_CONDITION": "conditionIsJob",
         "USERPROFILEKEY": "JOBDEF.TAB.RESOURCES",
         "FIELDS": [
            {
               "NAME": "REQUIRED_RESOURCES",
               "TYPE": "TREE-TABLE",
               "TRANSLATE": "required_resources",
               "ON_CLICK_METHOD": "openRequiredResourceItem",
               "PATH_DEFINITION": "SCOPE_NAME",
               "NAME_DEFINITION": "RESOURCE_NAME",
               "TREE_CELL_TYPE": "REQUIRED_RESOURCE",
               "ENABLE_BULK": "true",
               "BULK_COMPARE_VALUE": "SCOPE_NAME",
               "BULK_DISABLED_IDENTIFIER": "BULK_DISABLED",
               "BULK_INVISIBLE_IDENTIFIER": "BULK_INVISIBLE",
               "TOOLTIP": true,
               "TOOLTIP_LOOKUP": "RESOURCE_NAME",
               "COLLAPSED": "false",
               "TABLE": {
                  "FIELDS": [
                     {
                        "NAME": "ALLOCATE_STATE",
                        "TYPE": "TEXT",
                        "USE_LABEL": false,
                        "TRANSLATE": "allocate_state",
                        "CSS_CONDITION": "allocateStateColorCondition"
                     },
                     {
                        "NAME": "ONLINE",
                        "TYPE": "TEXT",
                        "USE_LABEL": false,
                        "TRANSLATE": "online",
                        "CSS_CONDITION": "onlineColorCondition"
                     },
                     {
                        "NAME": "TOTAL_AMOUNT",
                        "TYPE": "TEXT",
                        "USE_LABEL": false,
                        "TRANSLATE": "total_amount"
                     },
                     {
                        "NAME": "FREE_AMOUNT",
                        "TYPE": "TEXT",
                        "USE_LABEL": false,
                        "TRANSLATE": "free_amount",
                        "CSS_CONDITION": "freeAmountColorCondition"
                     },
                     {
                        "NAME": "REQUESTED_AMOUNT",
                        "TYPE": "TEXT",
                        "USE_LABEL": false,
                        "TRANSLATE": "requested_amount",
                        "CSS_CONDITION": "freeAmountColorCondition"
                     },
                     {
                        "NAME": "RESERVED_AMOUNT",
                        "TYPE": "TEXT",
                        "USE_LABEL": false,
                        "TRANSLATE": "reserved_amount"
                     },
                     {
                        "NAME": "ALLOCATED_AMOUNT",
                        "TYPE": "TEXT",
                        "USE_LABEL": false,
                        "TRANSLATE": "allocated_amount"
                     },
                     {
                        "NAME": "RESOURCE_STATE",
                        "TYPE": "TEXT",
                        "USE_LABEL": false,
                        "TRANSLATE": "resource_state",
                        "CSS_CONDITION": "requestedStateColorCondition"
                     },
                     {
                        "NAME": "REQUESTED_STATES",
                        "TYPE": "TEXT",
                        "USE_LABEL": false,
                        "TRANSLATE": "requested_states",
                        "CSS_CONDITION": "requestedStateColorCondition"
                     },
                     {
                        "NAME": "RESOURCE_TIMESTAMP",
                        "TYPE": "TEXT",
                        "USE_LABEL": false,
                        "TRANSLATE": "resource_timestamp",
                        "CSS_CONDITION": "expiredColorCondition"
                     },
                     {
                        "NAME": "EXPIRE",
                        "TYPE": "TEXT",
                        "USE_LABEL": false,
                        "TRANSLATE": "expires",
                        "CSS_CONDITION": "expiredColorCondition"
                     },
                     {
                        "NAME": "REQUESTED_LOCKMODE",
                        "TYPE": "TEXT",
                        "USE_LABEL": false,
                        "TRANSLATE": "requested_lockmode",
                        "CSS_CONDITION": "lockModeColorCondition"
                     },
                     {
                        "NAME": "DEFINITION",
                        "TYPE": "TEXT",
                        "ICON_LOOKUP": {
                           "PREFIX": "",
                           "RECORD_PROPERTY": "SCOPE_TYPE"
                        },
                        "DISPLAY_MODIFIER": "REMOVE_PATH",
                        "TOOLTIP": true,
                        "TOOLTIP_LOOKUP": "DEFINITION",
                        "ON_CLICK": "openDefinition",
                        "VISIBLE_CONDITION" : "!conditionIsScopeOrServer",
                        "USE_LABEL": false,
                        "TRANSLATE": "definition"
                     }
                  ],
                  "BUTTONS": [
                     {
                        "VALUE": "IGNORE_RESOURCE",
                        "TRANSLATE": "ignore_resources",
                        "IS_BULK_BUTTON": "true",
                        "ICON_LOOKUP": "ignore_resources",
                        "METHOD": "openIgnoreResources"
                     }
                  ]
               }
            }
         ]
      },
      {
         "VALUE": "DEFINED_RESOURCES",
         "LABEL": "Defined Resources",
         "TRANSLATE": "defined_resources",
         "TYPE": "ACCORDION",
         "CSS": "flex: 1 1 100%",
         "LAZY_LOADING": true,
         "CONDITION": "ConditionIsJob",
         "MODES": {
            "NEW": 1,
            "EDIT": 1
         },
         "FIELDS": [
            {
               "NAME": "DEFINED_RESOURCES",
               "TYPE": "TREE-TABLE",
               "TRANSLATE": "defined_resources",
               "ON_CLICK_METHOD": "openDefinedResourceItemFromTree",
               "PATH_DEFINITION": "RESOURCE_NAME",
               "NAME_DEFINITION": "RESOURCE_NAME",
               "TREE_CELL_TYPE": "REQUIRED_RESOURCE",
               "COLLAPSED": "false",
               "TABLE": {
                  "FIELDS": [
                     {
                        "NAME": "ID",
                        "TYPE": "TEXT",
                        "USE_LABEL": false,
                        "TRANSLATE": "id"
                     },
                     {
                        "NAME": "RESOURCE_USAGE",
                        "TYPE": "TEXT",
                        "USE_LABEL": false,
                        "TRANSLATE": "resource_usage"
                     },
                     {
                        "NAME": "RESOURCE_OWNER",
                        "TYPE": "TEXT",
                        "USE_LABEL": false,
                        "TRANSLATE": "resource_owner"
                     },
                     {
                        "NAME": "RESOURCE_PRIVS",
                        "TYPE": "TEXT",
                        "USE_LABEL": false,
                        "TRANSLATE": "resource_privs"
                     },
                     {
                        "NAME": "RESOURCE_STATE",
                        "TYPE": "TEXT",
                        "USE_LABEL": false,
                        "TRANSLATE": "resource_state"
                     },
                     {
                        "NAME": "RESOURCE_TIMESTAMP",
                        "TYPE": "TEXT",
                        "USE_LABEL": false,
                        "TRANSLATE": "resource_timestamp"
                     },
                     {
                        "NAME": "REQUESTABLE_AMOUNT",
                        "TYPE": "TEXT",
                        "USE_LABEL": false,
                        "TRANSLATE": "requestable_amount"
                     },
                     {
                        "NAME": "TOTAL_AMOUNT",
                        "TYPE": "TEXT",
                        "USE_LABEL": false,
                        "TRANSLATE": "total_amount"
                     },
                     {
                        "NAME": "FREE_AMOUNT",
                        "TYPE": "TEXT",
                        "USE_LABEL": false,
                        "TRANSLATE": "free_amount"
                     },
                     {
                        "NAME": "LOAD",
                        "TYPE": "LOADBAR",
                        "USE_LABEL": false,
                        "TRANSLATE": "load"
                     },
                     {
                        "NAME": "ONLINE",
                        "TYPE": "TEXT",
                        "USE_LABEL": false,
                        "TRANSLATE": "online"
                     }
                  ]
               }
            }
         ]
      },
      {
         "VALUE": "DEPENDENCIES",
         "LABEL": "Dependencies",
         "CSS": "flex: 1 1 100%",
         "TRANSLATE": "dependencies",
         "TYPE": "ACCORDION",
         "LAZY_LOADING": true,
         "FIELDS": [
            {
               "NAME": "SE_DEPENDENCY_MODE",
               "TYPE": "TEXT",
               "TRANSLATE": "dependency_mode",
               "USE_LABEL": true
            },
            {
               "NAME": "REQUIRED_JOBS",
               "TYPE": "TABLE",
               "TRANSLATE": "required_jobs",
               "ENABLE_BULK": "true",
               "BULK_COMPARE_VALUE": "REQUIREDNAME",
               "BULK_DISABLED_IDENTIFIER": "BULK_DISABLED",
               "BULK_INVISIBLE_IDENTIFIER": "BULK_INVISIBLE",
               "TABLE": {
                  "FIELDS": [
                     {
                        "NAME": "IGNORED",
                        "TRANSLATE": "",
                        "TYPE": "ICONS",
                        "ICONS": [
                           {
                              "USE_LABEL": false,
                              "VISIBLE_CONDITION": "conditionDependencyIsOk",
                              "ICON_LOOKUP": "done",
                              "TOOLTIP": "dependency_is_ok",
                              "CSS_CLASS_CONDITION": "isDependencyOKClass"
                           },
                           {
                              "USE_LABEL": false,
                              "VISIBLE_CONDITION": "!conditionDependencyIsOk",
                              "ICON_LOOKUP": "drop",
                              "TOOLTIP": "dependency_is_not_ok",
                              "CSS_CLASS_CONDITION": "isDependencyOKClass"
                           },
                           { 
                              "USE_LABEL": false,
                              "VISIBLE_CONDITION": "conditionIsIgnoredDependency",
                              "ICON_LOOKUP": "ignore_dependencies",
                              "TOOLTIP": "dependency_is_ignored",
                              "METHOD": "TODO"
                           }
                        ]
                     },
                     {
                        "NAME": "DD_REQUIREDNAME",
                        "TYPE": "TEXT",
                        "DISABLED_ON_CLICK": "openDependency",
                        "DISABLED_ENABLE_CONDITION": "conditionRequiredIsSme",
                        "TRANSLATE": "required_name",
                        "USE_LABEL": false,
                        "DISPLAY_MODIFIER": "REMOVE_PATH",
                        "TOOLTIP": true,
                        "TOOLTIP_LOOKUP": "REQUIRED_PATH",
                        "ICON_LOOKUP": {
                           "PREFIX": "",
                           "RECORD_PROPERTY": "DD_REQUIREDTYPE"
                        }
                     },
                     {
                        "NAME": "ID",
                        "ON_CLICK": "openDependency",
                        "ENABLE_CONDITION": "conditionRequiredIsSme",
                        "CSS_CONDITION": "dependencyColorCondition",
                        "CONDITION": "conditionRequiredIsSme",
                        "ICON_LOOKUP": "submitted_entity",
                        "TYPE": "TEXT",
                        "TRANSLATE": "id",
                        "USE_LABEL": false
                     },
                     {
                        "NAME": "FINAL_STATE",
                        "TYPE": "TEXT",
                        "TRANSLATE": "final_state",
                        "USE_LABEL": false
                     },
                     {
                        "NAME": "DD_CONDITION",
                        "TYPE": "TEXT",
                        "TRANSLATE": "required_condition",
                        "USE_LABEL": false
                     },
                     {
                        "NAME": "DD_DEPENDENTNAME",
                        "TYPE": "TEXT",
                        "TRANSLATE": "dependent_name",
                        "USE_LABEL": false,
                        "DISPLAY_MODIFIER": "REMOVE_PATH",
                        "TOOLTIP": true,
                        "TOOLTIP_LOOKUP": "DEPENDENT_PATH",
                        "DISABLE_ON_CLICK": "openDependent",
                        "ICON_LOOKUP": {
                           "PREFIX": "",
                           "RECORD_PROPERTY": "DD_DEPENDENTTYPE"
                        }
                     },
                     {
                        "NAME": "DEPENDENT_ID",
                        "TYPE": "TEXT",
                        "TRANSLATE": "dependent_id",
                        "USE_LABEL": false,
                        "ON_CLICK": "openDependent",
                        "ENABLE_CONDITION": "conditionDependentIsSelf"
                     },
                     {
                        "NAME": "DD_STATE_SELECTION",
                        "TYPE": "TEXT",
                        "TRANSLATE": "state_selection",
                        "USE_LABEL": false
                     },
                     {
                        "NAME": "DD_STATES",
                        "TYPE": "TEXT",
                        "TRANSLATE": "states",
                        "USE_LABEL": false
                     },
                     {
                        "NAME": "DD_MODE",
                        "TYPE": "TEXT",
                        "TRANSLATE": "check_on",
                        "USE_LABEL": false
                     },
                     {
                        "NAME": "STATE",
                        "TYPE": "TEXT",
                        "TRANSLATE": "state",
                        "USE_LABEL": false
                     }
                  ],
                  "BUTTONS": [
                     {
                        "VALUE": "IGNORE_DEPENDENCY",
                        "TRANSLATE": "ignore_dependencies",
                        "IS_BULK_BUTTON": "true",
                        "ICON_LOOKUP": "ignore_dependencies",
                        "METHOD": "openIgnoreDependencies"
                     }
                  ]
               }
            }
         ]
      },
      {
         "VALUE": "DEPENDENTS",
         "LABEL": "Dependents",
         "CSS": "flex: 1 1 100%",
         "TRANSLATE": "dependents",
         "TYPE": "ACCORDION",
         "LAZY_LOADING": true,
         "FIELDS": [
            {
               "NAME": "DEPENDENT_JOBS",
               "TYPE": "TABLE",
               "TRANSLATE": "dependent_jobs",
               "TABLE": {
                  "FIELDS": [
                     {
                        "NAME": "DD_DEPENDENTNAME",
                        "TYPE": "TEXT",
                        "ON_CLICK": "openDependent",
                        "TRANSLATE": "dependent_name",
                        "USE_LABEL": false,
                        "DISPLAY_MODIFIER": "REMOVE_PATH",
                        "TOOLTIP": true,
                        "TOOLTIP_LOOKUP": "DD_DEPENDENTNAME",
                        "ICON_LOOKUP": {
                           "PREFIX": "",
                           "RECORD_PROPERTY": "DD_DEPENDENTTYPE"
                        }
                     },
                     {
                        "NAME": "ID",
                        "TYPE": "TEXT",
                        "TRANSLATE": "id",
                        "USE_LABEL": false
                     },
                     {
                        "NAME": "FINAL_STATE",
                        "TYPE": "TEXT",
                        "TRANSLATE": "final_state",
                        "USE_LABEL": false
                     },
                     {
                        "NAME": "DD_CONDITION",
                        "TYPE": "TEXT",
                        "TRANSLATE": "required_condition",
                        "USE_LABEL": false
                     },
                     {
                        "NAME": "DEPENDENT_PATH",
                        "TYPE": "TEXT",
                        "TRANSLATE": "dependent_name",
                        "USE_LABEL": false,
                        "DISPLAY_MODIFIER": "REMOVE_PATH",
                        "TOOLTIP": true,
                        "TOOLTIP_LOOKUP": "DEPENDENT_PATH",
                        "ON_CLICK": "openDependent"
                     },
                     {
                        "NAME": "DEPENDENT_ID",
                        "TYPE": "TEXT",
                        "TRANSLATE": "dependent_id",
                        "USE_LABEL": false,
                        "ON_CLICK": "openDependent"
                     },
                     {
                        "NAME": "DD_STATE_SELECTION",
                        "TYPE": "TEXT",
                        "TRANSLATE": "state_selection",
                        "USE_LABEL": false
                     },
                     {
                        "NAME": "DD_MODE",
                        "TYPE": "TEXT",
                        "TRANSLATE": "check_on",
                        "USE_LABEL": false
                     },
                     {
                        "NAME": "DEPENDENCY_OPERATION",
                        "TYPE": "TEXT",
                        "TRANSLATE": "mode",
                        "USE_LABEL": false
                     },
                     {
                        "NAME": "STATE",
                        "TYPE": "TEXT",
                        "TRANSLATE": "state",
                        "USE_LABEL": false
                     }
                  ]
               }
            }
         ]
      }
   ],
   "BUTTONS": [
      {
         "NAME": "REFRESH",
         "VALUE": "REFRESH",
         "TRANSLATE": "refresh",
         "CHANGED" :"N",
         "ICON_LOOKUP": "refresh",
         "HIDE_DISABLED" : true
      },
      {
         "VALUE": "REVERT",
         "TRANSLATE": "revert",
         "PROTECT": "N",
         "MODES": {
            "EDIT": 1
         },
         "CHANGED": "Y",
         "CONFIRM": "Do you really want to lose your changes ?",
         "ICON_LOOKUP": "revert",
         "HIDE_DISABLED" : true
      },
      {
         "NAME": "SAVE",
         "VALUE": "SAVE",
         "TRANSLATE": "save",
         "PROTECT": "Y",
         "CHANGED": "Y",
         "METHOD": "save",
         "ICON_LOOKUP": "save",
         "PRIVS": "E"
      },
      {
         "VALUE": "RERUN_ENTITY",
         "TRANSLATE": "rerun",
         "VISIBLE_CONDITION": "conditionIsRerunable",
         "PRIVS": "r",
         "METHOD": "rerunEntity",
         "MODES": {
            "EDIT": 1
         },
         "CHANGED": "N",
         "ICON_LOOKUP": "rerun"
      },
      {
         "VALUE": "SUSPEND_ENTITY",
         "TRANSLATE": "suspend",
         "METHOD": "suspendEntity",
         "VISIBLE_CONDITION": "conditionIsSuspendable",
         "PRIVS": "u",
         "MODES": {
            "EDIT": 1
         },
         "CHANGED": "N",
         "ICON_LOOKUP": "suspend_entity"
      },
      {
         "VALUE": "RESUME_ENTITY",
         "TRANSLATE": "resume",
         "VISIBLE_CONDITION": "conditionIsResumeable",
         "PRIVS": "u",
         "METHOD": "resumeEntity",
         "MODES": {
            "EDIT": 1
         },
         "CHANGED": "N",
         "ICON_LOOKUP": "resume_entity"
      },
      {
         "VALUE": "CANCEL_ENTITY",
         "TRANSLATE": "cancel",
         "VISIBLE_CONDITION": "conditionIsCancelable",
         "PRIVS": "c",
         "CHANGED": "N",
         "METHOD": "cancelEntity",
         "MODES": {
            "EDIT": 1
         },
         "ICON_LOOKUP": "rip"
      },
      {
         "VALUE": "CHANGE_ENITIY_STATE",
         "TRANSLATE": "change_state",
         "VISIBLE_CONDITION": "conditionIsStatechangeable",
         "PRIVS": "s",
         "METHOD": "setStateEntity",
         "MODES": {
            "EDIT": 1
         },
         "CHANGED": "N",
         "ICON_LOOKUP": "state"
      },
      {
         "VALUE": "KILL_ENTITY",
         "TRANSLATE": "kill",
         "VISIBLE_CONDITION": "conditionIsKillable",
         "PRIVS": "k",
         "METHOD": "killEntity",
         "MODES": {
            "EDIT": 1
         },
         "CHANGED": "N",
         "ICON_LOOKUP": "kill"
      },
      {
         "VALUE": "ENABLE_ENTITY",
         "TRANSLATE": "enable",
         "METHOD": "enableEntity",
         "VISIBLE_CONDITION": "conditionCanEnable",
         "PRIVS": "e",
         "MODES": {
            "EDIT": 1
         },
         "CHANGED": "N",
         "ICON_LOOKUP": "enable"
      },
      {
         "VALUE": "DISABLE_ENTITY",
         "TRANSLATE": "disable",
         "VISIBLE_CONDITION": "conditionCanDisable",
         "PRIVS": "e",
         "METHOD": "disableEntity",
         "MODES": {
            "EDIT": 1
         },
         "CHANGED": "N",
         "ICON_LOOKUP": "disable"
      },
      {
         "VALUE": "CLONE_ENTITY",
         "VISIBLE_CONDITION": "conditionIsCloneable",
         "TRANSLATE": "clone",
         "PRIVS": "l",
         "METHOD": "cloneEntity",
         "MODES": {
            "EDIT": 1
         },
         "CHANGED": "N",
         "ICON_LOOKUP": "clone"
      },
      {
         "VALUE": "CLEAR_WARNING",
         "VISIBLE_CONDITION": "conditionHasWarning",
         "TRANSLATE": "clear_warning",
         "PRIVS": "w",
         "METHOD": "clearWarningEntity",
         "MODES": {
            "EDIT": 1
         },
         "AVAILABLE": [
             "PROFESSIONAL",
             "ENTERPRISE"
         ],
         "CHANGED": "N",
         "ICON_LOOKUP": "clear_warning"
      },
      {
         "VALUE": "HIERARCHY",
         "TRANSLATE": "hierarchy",
         "PROTECT": "N",
         "PRIVS": "E",
         "METHOD": "openSmeInHierarchy",
         "MODES": {
            "EDIT": 1
         },
         "ICON_LOOKUP": "hierarchy"
      },
      {
         "VALUE": "OPEN_VERSIONED_SE",
         "TRANSLATE": "open_version",
         "PRIVS": "",
         "METHOD": "openVersion",
         "MODES": {
            "EDIT": 1
         },
         "ICON_LOOKUP": {
            "PREFIX": "version_",
            "RECORD_PROPERTY": "SE_TYPE"
         }
      },
      {
         "VALUE": "AUDIT_COMMENT_ENTITY",
         "VISIBLE_CONDITION": "conditionAuditEnabled",
         "TRANSLATE": "audit_comment",
         "PROTECT": "Y",
         "PRIVS": "",
         "METHOD": "auditCommentEntity",
         "MODES": {
            "EDIT": 1
         },
         "CHANGED": "N",
         "ICON_LOOKUP": "comment"
      }
   ]
}
