{
    "virtualJobStates": [
        "RESTARTABLE",
        "PENDING",
        "WARNING"
    ],
    "jobStates": [
        "SUBMITTED",
        "RESOURCE_WAIT",
        "RUNNABLE",
        "STARTING",
        "STARTED",
        "RUNNING",
        "TO_KILL",
        "KILLED",
        "BROKEN_ACTIVE",
        "BROKEN_FINISHED",
        "UNREACHABLE",
        "DEPENDENCY_WAIT",
        "SYNCHRONIZE_WAIT",
        "RESOURCE_WAIT",
        "CANCELLED",
        "FINAL",
        "FINISHED",
        "ERROR",
        "SUSPENDED"
    ]
}